%YAML 1.1
%TAG !u! tag:unity3d.com,2011:
--- !u!1 &100000
GameObject:
  m_ObjectHideFlags: 0
  m_PrefabParentObject: {fileID: 0}
  m_PrefabInternal: {fileID: 100100000}
  serializedVersion: 4
  m_Component:
  - 4: {fileID: 400000}
  - 114: {fileID: 11400000}
  m_Layer: 0
  m_Name: AmaranthFont
  m_TagString: Untagged
  m_Icon: {fileID: 0}
  m_NavMeshLayer: 0
  m_StaticEditorFlags: 0
  m_IsActive: 0
--- !u!4 &400000
Transform:
  m_ObjectHideFlags: 1
  m_PrefabParentObject: {fileID: 0}
  m_PrefabInternal: {fileID: 100100000}
  m_GameObject: {fileID: 100000}
  m_LocalRotation: {x: 0, y: 0, z: 0, w: 1}
  m_LocalPosition: {x: 0, y: 0, z: 0}
  m_LocalScale: {x: 1, y: 1, z: 1}
  m_Children: []
  m_Father: {fileID: 0}
  m_RootOrder: 0
--- !u!114 &11400000
MonoBehaviour:
  m_ObjectHideFlags: 1
  m_PrefabParentObject: {fileID: 0}
  m_PrefabInternal: {fileID: 100100000}
  m_GameObject: {fileID: 100000}
  m_Enabled: 1
  m_EditorHideFlags: 0
  m_Script: {fileID: 11500000, guid: f5b31e9ce0b4198448b6edba880cf90c, type: 3}
  m_Name: 
  m_EditorClassIdentifier: 
  bmFont: {fileID: 4900000, guid: 1eb338d1080e8474eb179e0bcc0336d6, type: 3}
  material: {fileID: 2100000, guid: 903e7664965fd0e4d9be946dc6c47d9c, type: 2}
  texture: {fileID: 2800000, guid: 0735e16da721cc14bae6b43df01b6bf4, type: 3}
  gradientTexture: {fileID: 0}
  dupeCaps: 0
  flipTextureY: 0
  proxyFont: 0
  useTk2dCamera: 0
  targetHeight: 640
  targetOrthoSize: 1
  sizeDef:
    type: 1
    orthoSize: 10
    pixelsPerMeter: 1
    width: 960
    height: 640
  gradientCount: 1
  manageMaterial: 1
  loadable: 0
  charPadX: 0
  data: {fileID: 11400000, guid: ec6035183090d18439c8ff63e6506dad, type: 2}
  version: 1
--- !u!1001 &100100000
Prefab:
  m_ObjectHideFlags: 1
  serializedVersion: 2
  m_Modification:
    m_TransformParent: {fileID: 0}
    m_Modifications: []
    m_RemovedComponents: []
  m_ParentPrefab: {fileID: 0}
  m_RootGameObject: {fileID: 100000}
  m_IsPrefabParent: 1
  m_IsExploded: 1
