%YAML 1.1
%TAG !u! tag:unity3d.com,2011:
--- !u!1 &100000
GameObject:
  m_ObjectHideFlags: 0
  m_PrefabParentObject: {fileID: 0}
  m_PrefabInternal: {fileID: 100100000}
  serializedVersion: 4
  m_Component:
  - 4: {fileID: 400000}
  - 114: {fileID: 11400000}
  m_Layer: 0
  m_Name: AmaranthFontdata
  m_TagString: Untagged
  m_Icon: {fileID: 0}
  m_NavMeshLayer: 0
  m_StaticEditorFlags: 0
  m_IsActive: 0
--- !u!4 &400000
Transform:
  m_ObjectHideFlags: 1
  m_PrefabParentObject: {fileID: 0}
  m_PrefabInternal: {fileID: 100100000}
  m_GameObject: {fileID: 100000}
  m_LocalRotation: {x: 0, y: 0, z: 0, w: 1}
  m_LocalPosition: {x: 0, y: 0, z: 0}
  m_LocalScale: {x: 1, y: 1, z: 1}
  m_Children: []
  m_Father: {fileID: 0}
  m_RootOrder: 0
--- !u!114 &11400000
MonoBehaviour:
  m_ObjectHideFlags: 1
  m_PrefabParentObject: {fileID: 0}
  m_PrefabInternal: {fileID: 100100000}
  m_GameObject: {fileID: 100000}
  m_Enabled: 1
  m_EditorHideFlags: 0
  m_Script: {fileID: 11500000, guid: 5c3dbaadab7ed764aa4fa8154acb54f4, type: 3}
  m_Name: 
  m_EditorClassIdentifier: 
  version: 2
  lineHeight: 128
  chars:
  - p0: {x: 0, y: 0, z: 0}
    p1: {x: 0, y: 0, z: 0}
    uv0: {x: 0, y: 0, z: 0}
    uv1: {x: 0, y: 0, z: 0}
    flipped: 0
    gradientUv:
    - {x: 0, y: 0}
    - {x: 0, y: 0}
    - {x: 0, y: 0}
    - {x: 0, y: 0}
    advance: 0
    channel: 0
  - p0: {x: 0, y: 0, z: 0}
    p1: {x: 0, y: 0, z: 0}
    uv0: {x: 0, y: 0, z: 0}
    uv1: {x: 0, y: 0, z: 0}
    flipped: 0
    gradientUv:
    - {x: 0, y: 0}
    - {x: 0, y: 0}
    - {x: 0, y: 0}
    - {x: 0, y: 0}
    advance: 0
    channel: 0
  - p0: {x: 0, y: 0, z: 0}
    p1: {x: 0, y: 0, z: 0}
    uv0: {x: 0, y: 0, z: 0}
    uv1: {x: 0, y: 0, z: 0}
    flipped: 0
    gradientUv:
    - {x: 0, y: 0}
    - {x: 0, y: 0}
    - {x: 0, y: 0}
    - {x: 0, y: 0}
    advance: 0
    channel: 0
  - p0: {x: 0, y: 0, z: 0}
    p1: {x: 0, y: 0, z: 0}
    uv0: {x: 0, y: 0, z: 0}
    uv1: {x: 0, y: 0, z: 0}
    flipped: 0
    gradientUv:
    - {x: 0, y: 0}
    - {x: 0, y: 0}
    - {x: 0, y: 0}
    - {x: 0, y: 0}
    advance: 0
    channel: 0
  - p0: {x: 0, y: 0, z: 0}
    p1: {x: 0, y: 0, z: 0}
    uv0: {x: 0, y: 0, z: 0}
    uv1: {x: 0, y: 0, z: 0}
    flipped: 0
    gradientUv:
    - {x: 0, y: 0}
    - {x: 0, y: 0}
    - {x: 0, y: 0}
    - {x: 0, y: 0}
    advance: 0
    channel: 0
  - p0: {x: 0, y: 0, z: 0}
    p1: {x: 0, y: 0, z: 0}
    uv0: {x: 0, y: 0, z: 0}
    uv1: {x: 0, y: 0, z: 0}
    flipped: 0
    gradientUv:
    - {x: 0, y: 0}
    - {x: 0, y: 0}
    - {x: 0, y: 0}
    - {x: 0, y: 0}
    advance: 0
    channel: 0
  - p0: {x: 0, y: 0, z: 0}
    p1: {x: 0, y: 0, z: 0}
    uv0: {x: 0, y: 0, z: 0}
    uv1: {x: 0, y: 0, z: 0}
    flipped: 0
    gradientUv:
    - {x: 0, y: 0}
    - {x: 0, y: 0}
    - {x: 0, y: 0}
    - {x: 0, y: 0}
    advance: 0
    channel: 0
  - p0: {x: 0, y: 0, z: 0}
    p1: {x: 0, y: 0, z: 0}
    uv0: {x: 0, y: 0, z: 0}
    uv1: {x: 0, y: 0, z: 0}
    flipped: 0
    gradientUv:
    - {x: 0, y: 0}
    - {x: 0, y: 0}
    - {x: 0, y: 0}
    - {x: 0, y: 0}
    advance: 0
    channel: 0
  - p0: {x: 0, y: 0, z: 0}
    p1: {x: 0, y: 0, z: 0}
    uv0: {x: 0, y: 0, z: 0}
    uv1: {x: 0, y: 0, z: 0}
    flipped: 0
    gradientUv:
    - {x: 0, y: 0}
    - {x: 0, y: 0}
    - {x: 0, y: 0}
    - {x: 0, y: 0}
    advance: 0
    channel: 0
  - p0: {x: 0, y: 0, z: 0}
    p1: {x: 0, y: 0, z: 0}
    uv0: {x: 0, y: 0, z: 0}
    uv1: {x: 0, y: 0, z: 0}
    flipped: 0
    gradientUv:
    - {x: 0, y: 0}
    - {x: 0, y: 0}
    - {x: 0, y: 0}
    - {x: 0, y: 0}
    advance: 0
    channel: 0
  - p0: {x: 0, y: 0, z: 0}
    p1: {x: 0, y: 0, z: 0}
    uv0: {x: 0, y: 0, z: 0}
    uv1: {x: 0, y: 0, z: 0}
    flipped: 0
    gradientUv:
    - {x: 0, y: 0}
    - {x: 0, y: 0}
    - {x: 0, y: 0}
    - {x: 0, y: 0}
    advance: 0
    channel: 0
  - p0: {x: 0, y: 0, z: 0}
    p1: {x: 0, y: 0, z: 0}
    uv0: {x: 0, y: 0, z: 0}
    uv1: {x: 0, y: 0, z: 0}
    flipped: 0
    gradientUv:
    - {x: 0, y: 0}
    - {x: 0, y: 0}
    - {x: 0, y: 0}
    - {x: 0, y: 0}
    advance: 0
    channel: 0
  - p0: {x: 0, y: 0, z: 0}
    p1: {x: 0, y: 0, z: 0}
    uv0: {x: 0, y: 0, z: 0}
    uv1: {x: 0, y: 0, z: 0}
    flipped: 0
    gradientUv:
    - {x: 0, y: 0}
    - {x: 0, y: 0}
    - {x: 0, y: 0}
    - {x: 0, y: 0}
    advance: 0
    channel: 0
  - p0: {x: 0, y: 0, z: 0}
    p1: {x: 0, y: 0, z: 0}
    uv0: {x: 0, y: 0, z: 0}
    uv1: {x: 0, y: 0, z: 0}
    flipped: 0
    gradientUv:
    - {x: 0, y: 0}
    - {x: 0, y: 0}
    - {x: 0, y: 0}
    - {x: 0, y: 0}
    advance: 0
    channel: 0
  - p0: {x: 0, y: 0, z: 0}
    p1: {x: 0, y: 0, z: 0}
    uv0: {x: 0, y: 0, z: 0}
    uv1: {x: 0, y: 0, z: 0}
    flipped: 0
    gradientUv:
    - {x: 0, y: 0}
    - {x: 0, y: 0}
    - {x: 0, y: 0}
    - {x: 0, y: 0}
    advance: 0
    channel: 0
  - p0: {x: 0, y: 0, z: 0}
    p1: {x: 0, y: 0, z: 0}
    uv0: {x: 0, y: 0, z: 0}
    uv1: {x: 0, y: 0, z: 0}
    flipped: 0
    gradientUv:
    - {x: 0, y: 0}
    - {x: 0, y: 0}
    - {x: 0, y: 0}
    - {x: 0, y: 0}
    advance: 0
    channel: 0
  - p0: {x: 0, y: 0, z: 0}
    p1: {x: 0, y: 0, z: 0}
    uv0: {x: 0, y: 0, z: 0}
    uv1: {x: 0, y: 0, z: 0}
    flipped: 0
    gradientUv:
    - {x: 0, y: 0}
    - {x: 0, y: 0}
    - {x: 0, y: 0}
    - {x: 0, y: 0}
    advance: 0
    channel: 0
  - p0: {x: 0, y: 0, z: 0}
    p1: {x: 0, y: 0, z: 0}
    uv0: {x: 0, y: 0, z: 0}
    uv1: {x: 0, y: 0, z: 0}
    flipped: 0
    gradientUv:
    - {x: 0, y: 0}
    - {x: 0, y: 0}
    - {x: 0, y: 0}
    - {x: 0, y: 0}
    advance: 0
    channel: 0
  - p0: {x: 0, y: 0, z: 0}
    p1: {x: 0, y: 0, z: 0}
    uv0: {x: 0, y: 0, z: 0}
    uv1: {x: 0, y: 0, z: 0}
    flipped: 0
    gradientUv:
    - {x: 0, y: 0}
    - {x: 0, y: 0}
    - {x: 0, y: 0}
    - {x: 0, y: 0}
    advance: 0
    channel: 0
  - p0: {x: 0, y: 0, z: 0}
    p1: {x: 0, y: 0, z: 0}
    uv0: {x: 0, y: 0, z: 0}
    uv1: {x: 0, y: 0, z: 0}
    flipped: 0
    gradientUv:
    - {x: 0, y: 0}
    - {x: 0, y: 0}
    - {x: 0, y: 0}
    - {x: 0, y: 0}
    advance: 0
    channel: 0
  - p0: {x: 0, y: 0, z: 0}
    p1: {x: 0, y: 0, z: 0}
    uv0: {x: 0, y: 0, z: 0}
    uv1: {x: 0, y: 0, z: 0}
    flipped: 0
    gradientUv:
    - {x: 0, y: 0}
    - {x: 0, y: 0}
    - {x: 0, y: 0}
    - {x: 0, y: 0}
    advance: 0
    channel: 0
  - p0: {x: 0, y: 0, z: 0}
    p1: {x: 0, y: 0, z: 0}
    uv0: {x: 0, y: 0, z: 0}
    uv1: {x: 0, y: 0, z: 0}
    flipped: 0
    gradientUv:
    - {x: 0, y: 0}
    - {x: 0, y: 0}
    - {x: 0, y: 0}
    - {x: 0, y: 0}
    advance: 0
    channel: 0
  - p0: {x: 0, y: 0, z: 0}
    p1: {x: 0, y: 0, z: 0}
    uv0: {x: 0, y: 0, z: 0}
    uv1: {x: 0, y: 0, z: 0}
    flipped: 0
    gradientUv:
    - {x: 0, y: 0}
    - {x: 0, y: 0}
    - {x: 0, y: 0}
    - {x: 0, y: 0}
    advance: 0
    channel: 0
  - p0: {x: 0, y: 0, z: 0}
    p1: {x: 0, y: 0, z: 0}
    uv0: {x: 0, y: 0, z: 0}
    uv1: {x: 0, y: 0, z: 0}
    flipped: 0
    gradientUv:
    - {x: 0, y: 0}
    - {x: 0, y: 0}
    - {x: 0, y: 0}
    - {x: 0, y: 0}
    advance: 0
    channel: 0
  - p0: {x: 0, y: 0, z: 0}
    p1: {x: 0, y: 0, z: 0}
    uv0: {x: 0, y: 0, z: 0}
    uv1: {x: 0, y: 0, z: 0}
    flipped: 0
    gradientUv:
    - {x: 0, y: 0}
    - {x: 0, y: 0}
    - {x: 0, y: 0}
    - {x: 0, y: 0}
    advance: 0
    channel: 0
  - p0: {x: 0, y: 0, z: 0}
    p1: {x: 0, y: 0, z: 0}
    uv0: {x: 0, y: 0, z: 0}
    uv1: {x: 0, y: 0, z: 0}
    flipped: 0
    gradientUv:
    - {x: 0, y: 0}
    - {x: 0, y: 0}
    - {x: 0, y: 0}
    - {x: 0, y: 0}
    advance: 0
    channel: 0
  - p0: {x: 0, y: 0, z: 0}
    p1: {x: 0, y: 0, z: 0}
    uv0: {x: 0, y: 0, z: 0}
    uv1: {x: 0, y: 0, z: 0}
    flipped: 0
    gradientUv:
    - {x: 0, y: 0}
    - {x: 0, y: 0}
    - {x: 0, y: 0}
    - {x: 0, y: 0}
    advance: 0
    channel: 0
  - p0: {x: 0, y: 0, z: 0}
    p1: {x: 0, y: 0, z: 0}
    uv0: {x: 0, y: 0, z: 0}
    uv1: {x: 0, y: 0, z: 0}
    flipped: 0
    gradientUv:
    - {x: 0, y: 0}
    - {x: 0, y: 0}
    - {x: 0, y: 0}
    - {x: 0, y: 0}
    advance: 0
    channel: 0
  - p0: {x: 0, y: 0, z: 0}
    p1: {x: 0, y: 0, z: 0}
    uv0: {x: 0, y: 0, z: 0}
    uv1: {x: 0, y: 0, z: 0}
    flipped: 0
    gradientUv:
    - {x: 0, y: 0}
    - {x: 0, y: 0}
    - {x: 0, y: 0}
    - {x: 0, y: 0}
    advance: 0
    channel: 0
  - p0: {x: 0, y: 0, z: 0}
    p1: {x: 0, y: 0, z: 0}
    uv0: {x: 0, y: 0, z: 0}
    uv1: {x: 0, y: 0, z: 0}
    flipped: 0
    gradientUv:
    - {x: 0, y: 0}
    - {x: 0, y: 0}
    - {x: 0, y: 0}
    - {x: 0, y: 0}
    advance: 0
    channel: 0
  - p0: {x: 0, y: 0, z: 0}
    p1: {x: 0, y: 0, z: 0}
    uv0: {x: 0, y: 0, z: 0}
    uv1: {x: 0, y: 0, z: 0}
    flipped: 0
    gradientUv:
    - {x: 0, y: 0}
    - {x: 0, y: 0}
    - {x: 0, y: 0}
    - {x: 0, y: 0}
    advance: 0
    channel: 0
  - p0: {x: 0, y: 0, z: 0}
    p1: {x: 0, y: 0, z: 0}
    uv0: {x: 0, y: 0, z: 0}
    uv1: {x: 0, y: 0, z: 0}
    flipped: 0
    gradientUv:
    - {x: 0, y: 0}
    - {x: 0, y: 0}
    - {x: 0, y: 0}
    - {x: 0, y: 0}
    advance: 0
    channel: 0
  - p0: {x: -10, y: 11, z: 0}
    p1: {x: 10, y: -10, z: 0}
    uv0: {x: .310546875, y: .3515625, z: 0}
    uv1: {x: .330078125, y: .331054688, z: 0}
    flipped: 0
    gradientUv: []
    advance: 27
    channel: 0
  - p0: {x: -3, y: 107, z: 0}
    p1: {x: 39, y: 14, z: 0}
    uv0: {x: .12109375, y: .776367188, z: 0}
    uv1: {x: .162109375, y: .685546875, z: 0}
    flipped: 0
    gradientUv: []
    advance: 35
    channel: 0
  - p0: {x: -6, y: 107, z: 0}
    p1: {x: 49, y: 59, z: 0}
    uv0: {x: .63671875, y: .426757812, z: 0}
    uv1: {x: .690429688, y: .379882812, z: 0}
    flipped: 0
    gradientUv: []
    advance: 43
    channel: 0
  - p0: {x: -7, y: 98, z: 0}
    p1: {x: 70, y: 15, z: 0}
    uv0: {x: .8359375, y: .602539062, z: 0}
    uv1: {x: .911132812, y: .521484375, z: 0}
    flipped: 0
    gradientUv: []
    advance: 63
    channel: 0
  - p0: {x: -6, y: 109, z: 0}
    p1: {x: 64, y: 7, z: 0}
    uv0: {x: 0, y: .875976562, z: 0}
    uv1: {x: .068359375, y: .776367188, z: 0}
    flipped: 0
    gradientUv: []
    advance: 58
    channel: 0
  - p0: {x: -7, y: 98, z: 0}
    p1: {x: 106, y: 14, z: 0}
    uv0: {x: .63671875, y: .59375, z: 0}
    uv1: {x: .747070312, y: .51171875, z: 0}
    flipped: 0
    gradientUv: []
    advance: 99
    channel: 0
  - p0: {x: -7, y: 99, z: 0}
    p1: {x: 74, y: 15, z: 0}
    uv0: {x: .751953125, y: .594726562, z: 0}
    uv1: {x: .831054688, y: .512695312, z: 0}
    flipped: 0
    gradientUv: []
    advance: 63
    channel: 0
  - p0: {x: -5, y: 107, z: 0}
    p1: {x: 30, y: 59, z: 0}
    uv0: {x: .6953125, y: .430664062, z: 0}
    uv1: {x: .729492188, y: .383789062, z: 0}
    flipped: 0
    gradientUv: []
    advance: 24
    channel: 0
  - p0: {x: -4, y: 112, z: 0}
    p1: {x: 48, y: -5, z: 0}
    uv0: {x: .295898438, y: 1, z: 0}
    uv1: {x: .346679688, y: .885742188, z: 0}
    flipped: 0
    gradientUv: []
    advance: 40
    channel: 0
  - p0: {x: -7, y: 112, z: 0}
    p1: {x: 45, y: -5, z: 0}
    uv0: {x: .240234375, y: 1, z: 0}
    uv1: {x: .291015625, y: .885742188, z: 0}
    flipped: 0
    gradientUv: []
    advance: 40
    channel: 0
  - p0: {x: -6, y: 107, z: 0}
    p1: {x: 56, y: 47, z: 0}
    uv0: {x: .3515625, y: .421875, z: 0}
    uv1: {x: .412109375, y: .36328125, z: 0}
    flipped: 0
    gradientUv: []
    advance: 50
    channel: 0
  - p0: {x: -5, y: 88, z: 0}
    p1: {x: 58, y: 25, z: 0}
    uv0: {x: .2109375, y: .416992188, z: 0}
    uv1: {x: .272460938, y: .35546875, z: 0}
    flipped: 0
    gradientUv: []
    advance: 53
    channel: 0
  - p0: {x: -7, y: 51, z: 0}
    p1: {x: 36, y: -3, z: 0}
    uv0: {x: .416992188, y: .423828125, z: 0}
    uv1: {x: .458984375, y: .37109375, z: 0}
    flipped: 0
    gradientUv: []
    advance: 31
    channel: 0
  - p0: {x: -6, y: 75, z: 0}
    p1: {x: 46, y: 43, z: 0}
    uv0: {x: .19921875, y: .33984375, z: 0}
    uv1: {x: .25, y: .30859375, z: 0}
    flipped: 0
    gradientUv: []
    advance: 39
    channel: 0
  - p0: {x: -5, y: 53, z: 0}
    p1: {x: 35, y: 14, z: 0}
    uv0: {x: .879882812, y: .440429688, z: 0}
    uv1: {x: .918945312, y: .40234375, z: 0}
    flipped: 0
    gradientUv: []
    advance: 29
    channel: 0
  - p0: {x: -12, y: 112, z: 0}
    p1: {x: 60, y: 2, z: 0}
    uv0: {x: .876953125, y: 1, z: 0}
    uv1: {x: .947265625, y: .892578125, z: 0}
    flipped: 0
    gradientUv: []
    advance: 47
    channel: 0
  - p0: {x: -7, y: 103, z: 0}
    p1: {x: 69, y: 14, z: 0}
    uv0: {x: .794921875, y: .694335938, z: 0}
    uv1: {x: .869140625, y: .607421875, z: 0}
    flipped: 0
    gradientUv: []
    advance: 62
    channel: 0
  - p0: {x: -10, y: 103, z: 0}
    p1: {x: 46, y: 15, z: 0}
    uv0: {x: .512695312, y: .592773438, z: 0}
    uv1: {x: .567382812, y: .506835938, z: 0}
    flipped: 0
    gradientUv: []
    advance: 44
    channel: 0
  - p0: {x: -10, y: 103, z: 0}
    p1: {x: 60, y: 15, z: 0}
    uv0: {x: .368164062, y: .591796875, z: 0}
    uv1: {x: .436523438, y: .505859375, z: 0}
    flipped: 0
    gradientUv: []
    advance: 53
    channel: 0
  - p0: {x: -8, y: 103, z: 0}
    p1: {x: 60, y: 14, z: 0}
    uv0: {x: .219726562, y: .5859375, z: 0}
    uv1: {x: .286132812, y: .499023438, z: 0}
    flipped: 0
    gradientUv: []
    advance: 53
    channel: 0
  - p0: {x: -9, y: 103, z: 0}
    p1: {x: 65, y: 15, z: 0}
    uv0: {x: .291015625, y: .58984375, z: 0}
    uv1: {x: .36328125, y: .50390625, z: 0}
    flipped: 0
    gradientUv: []
    advance: 55
    channel: 0
  - p0: {x: -7, y: 103, z: 0}
    p1: {x: 61, y: 14, z: 0}
    uv0: {x: .1484375, y: .5859375, z: 0}
    uv1: {x: .21484375, y: .499023438, z: 0}
    flipped: 0
    gradientUv: []
    advance: 55
    channel: 0
  - p0: {x: -7, y: 103, z: 0}
    p1: {x: 65, y: 14, z: 0}
    uv0: {x: 0, y: .581054688, z: 0}
    uv1: {x: .0703125, y: .494140625, z: 0}
    flipped: 0
    gradientUv: []
    advance: 57
    channel: 0
  - p0: {x: -10, y: 103, z: 0}
    p1: {x: 58, y: 15, z: 0}
    uv0: {x: .44140625, y: .592773438, z: 0}
    uv1: {x: .5078125, y: .506835938, z: 0}
    flipped: 0
    gradientUv: []
    advance: 49
    channel: 0
  - p0: {x: -6, y: 103, z: 0}
    p1: {x: 64, y: 14, z: 0}
    uv0: {x: .0751953125, y: .581054688, z: 0}
    uv1: {x: .143554688, y: .494140625, z: 0}
    flipped: 0
    gradientUv: []
    advance: 58
    channel: 0
  - p0: {x: -8, y: 103, z: 0}
    p1: {x: 64, y: 14, z: 0}
    uv0: {x: .874023438, y: .697265625, z: 0}
    uv1: {x: .944335938, y: .610351562, z: 0}
    flipped: 0
    gradientUv: []
    advance: 57
    channel: 0
  - p0: {x: -4, y: 90, z: 0}
    p1: {x: 36, y: 14, z: 0}
    uv0: {x: .94921875, y: .697265625, z: 0}
    uv1: {x: .98828125, y: .623046875, z: 0}
    flipped: 0
    gradientUv: []
    advance: 31
    channel: 0
  - p0: {x: -7, y: 90, z: 0}
    p1: {x: 36, y: -3, z: 0}
    uv0: {x: .07421875, y: .776367188, z: 0}
    uv1: {x: .116210938, y: .685546875, z: 0}
    flipped: 0
    gradientUv: []
    advance: 32
    channel: 0
  - p0: {x: -8, y: 91, z: 0}
    p1: {x: 54, y: 23, z: 0}
    uv0: {x: .145507812, y: .411132812, z: 0}
    uv1: {x: .206054688, y: .344726562, z: 0}
    flipped: 0
    gradientUv: []
    advance: 47
    channel: 0
  - p0: {x: -4, y: 82, z: 0}
    p1: {x: 56, y: 32, z: 0}
    uv0: {x: .463867188, y: .424804688, z: 0}
    uv1: {x: .522460938, y: .375976562, z: 0}
    flipped: 0
    gradientUv: []
    advance: 52
    channel: 0
  - p0: {x: -7, y: 91, z: 0}
    p1: {x: 55, y: 23, z: 0}
    uv0: {x: .080078125, y: .41015625, z: 0}
    uv1: {x: .140625, y: .34375, z: 0}
    flipped: 0
    gradientUv: []
    advance: 47
    channel: 0
  - p0: {x: -8, y: 108, z: 0}
    p1: {x: 54, y: 14, z: 0}
    uv0: {x: .765625, y: .88671875, z: 0}
    uv1: {x: .826171875, y: .794921875, z: 0}
    flipped: 0
    gradientUv: []
    advance: 47
    channel: 0
  - p0: {x: -6, y: 106, z: 0}
    p1: {x: 107, y: -5, z: 0}
    uv0: {x: .686523438, y: 1, z: 0}
    uv1: {x: .796875, y: .891601562, z: 0}
    flipped: 0
    gradientUv: []
    advance: 100
    channel: 0
  - p0: {x: -10, y: 107, z: 0}
    p1: {x: 79, y: 15, z: 0}
    uv0: {x: .387695312, y: .782226562, z: 0}
    uv1: {x: .474609375, y: .692382812, z: 0}
    flipped: 0
    gradientUv: []
    advance: 68
    channel: 0
  - p0: {x: -4, y: 107, z: 0}
    p1: {x: 68, y: 15, z: 0}
    uv0: {x: .322265625, y: .686523438, z: 0}
    uv1: {x: .392578125, y: .596679688, z: 0}
    flipped: 0
    gradientUv: []
    advance: 60
    channel: 0
  - p0: {x: -7, y: 108, z: 0}
    p1: {x: 67, y: 15, z: 0}
    uv0: {x: .919921875, y: .887695312, z: 0}
    uv1: {x: .9921875, y: .796875, z: 0}
    flipped: 0
    gradientUv: []
    advance: 57
    channel: 0
  - p0: {x: -4, y: 107, z: 0}
    p1: {x: 75, y: 15, z: 0}
    uv0: {x: .0830078125, y: .680664062, z: 0}
    uv1: {x: .16015625, y: .590820312, z: 0}
    flipped: 0
    gradientUv: []
    advance: 68
    channel: 0
  - p0: {x: -4, y: 107, z: 0}
    p1: {x: 64, y: 15, z: 0}
    uv0: {x: .545898438, y: .6875, z: 0}
    uv1: {x: .612304688, y: .59765625, z: 0}
    flipped: 0
    gradientUv: []
    advance: 55
    channel: 0
  - p0: {x: -4, y: 107, z: 0}
    p1: {x: 62, y: 15, z: 0}
    uv0: {x: .6171875, y: .688476562, z: 0}
    uv1: {x: .681640625, y: .598632812, z: 0}
    flipped: 0
    gradientUv: []
    advance: 52
    channel: 0
  - p0: {x: -7, y: 108, z: 0}
    p1: {x: 70, y: -8, z: 0}
    uv0: {x: .3515625, y: 1, z: 0}
    uv1: {x: .426757812, y: .88671875, z: 0}
    flipped: 0
    gradientUv: []
    advance: 64
    channel: 0
  - p0: {x: -4, y: 107, z: 0}
    p1: {x: 76, y: 15, z: 0}
    uv0: {x: .833984375, y: .791992188, z: 0}
    uv1: {x: .912109375, y: .702148438, z: 0}
    flipped: 0
    gradientUv: []
    advance: 72
    channel: 0
  - p0: {x: -4, y: 107, z: 0}
    p1: {x: 34, y: 15, z: 0}
    uv0: {x: .752929688, y: .694335938, z: 0}
    uv1: {x: .790039062, y: .604492188, z: 0}
    flipped: 0
    gradientUv: []
    advance: 30
    channel: 0
  - p0: {x: -15, y: 107, z: 0}
    p1: {x: 34, y: -8, z: 0}
    uv0: {x: .633789062, y: 1, z: 0}
    uv1: {x: .681640625, y: .887695312, z: 0}
    flipped: 0
    gradientUv: []
    advance: 30
    channel: 0
  - p0: {x: -4, y: 107, z: 0}
    p1: {x: 79, y: 15, z: 0}
    uv0: {x: .662109375, y: .784179688, z: 0}
    uv1: {x: .743164062, y: .694335938, z: 0}
    flipped: 0
    gradientUv: []
    advance: 67
    channel: 0
  - p0: {x: -4, y: 107, z: 0}
    p1: {x: 59, y: 15, z: 0}
    uv0: {x: .686523438, y: .689453125, z: 0}
    uv1: {x: .748046875, y: .599609375, z: 0}
    flipped: 0
    gradientUv: []
    advance: 48
    channel: 0
  - p0: {x: -5, y: 107, z: 0}
    p1: {x: 95, y: 15, z: 0}
    uv0: {x: .28515625, y: .78125, z: 0}
    uv1: {x: .3828125, y: .69140625, z: 0}
    flipped: 0
    gradientUv: []
    advance: 90
    channel: 0
  - p0: {x: -4, y: 107, z: 0}
    p1: {x: 76, y: 15, z: 0}
    uv0: {x: .916992188, y: .791992188, z: 0}
    uv1: {x: .995117188, y: .702148438, z: 0}
    flipped: 0
    gradientUv: []
    advance: 72
    channel: 0
  - p0: {x: -7, y: 108, z: 0}
    p1: {x: 79, y: 15, z: 0}
    uv0: {x: .831054688, y: .887695312, z: 0}
    uv1: {x: .915039062, y: .796875, z: 0}
    flipped: 0
    gradientUv: []
    advance: 73
    channel: 0
  - p0: {x: -4, y: 107, z: 0}
    p1: {x: 66, y: 15, z: 0}
    uv0: {x: .47265625, y: .6875, z: 0}
    uv1: {x: .541015625, y: .59765625, z: 0}
    flipped: 0
    gradientUv: []
    advance: 57
    channel: 0
  - p0: {x: -7, y: 108, z: 0}
    p1: {x: 83, y: -7, z: 0}
    uv0: {x: .431640625, y: 1, z: 0}
    uv1: {x: .51953125, y: .887695312, z: 0}
    flipped: 0
    gradientUv: []
    advance: 74
    channel: 0
  - p0: {x: -4, y: 107, z: 0}
    p1: {x: 73, y: 15, z: 0}
    uv0: {x: .165039062, y: .680664062, z: 0}
    uv1: {x: .240234375, y: .590820312, z: 0}
    flipped: 0
    gradientUv: []
    advance: 63
    channel: 0
  - p0: {x: -8, y: 108, z: 0}
    p1: {x: 63, y: 15, z: 0}
    uv0: {x: 0, y: .771484375, z: 0}
    uv1: {x: .0693359375, y: .680664062, z: 0}
    flipped: 0
    gradientUv: []
    advance: 55
    channel: 0
  - p0: {x: -10, y: 107, z: 0}
    p1: {x: 64, y: 15, z: 0}
    uv0: {x: .245117188, y: .684570312, z: 0}
    uv1: {x: .317382812, y: .594726562, z: 0}
    flipped: 0
    gradientUv: []
    advance: 53
    channel: 0
  - p0: {x: -5, y: 107, z: 0}
    p1: {x: 75, y: 15, z: 0}
    uv0: {x: 0, y: .67578125, z: 0}
    uv1: {x: .078125, y: .5859375, z: 0}
    flipped: 0
    gradientUv: []
    advance: 70
    channel: 0
  - p0: {x: -10, y: 107, z: 0}
    p1: {x: 79, y: 15, z: 0}
    uv0: {x: .479492188, y: .782226562, z: 0}
    uv1: {x: .56640625, y: .692382812, z: 0}
    flipped: 0
    gradientUv: []
    advance: 67
    channel: 0
  - p0: {x: -10, y: 107, z: 0}
    p1: {x: 106, y: 15, z: 0}
    uv0: {x: .166992188, y: .779296875, z: 0}
    uv1: {x: .280273438, y: .689453125, z: 0}
    flipped: 0
    gradientUv: []
    advance: 96
    channel: 0
  - p0: {x: -10, y: 107, z: 0}
    p1: {x: 78, y: 15, z: 0}
    uv0: {x: .571289062, y: .783203125, z: 0}
    uv1: {x: .657226562, y: .693359375, z: 0}
    flipped: 0
    gradientUv: []
    advance: 66
    channel: 0
  - p0: {x: -10, y: 107, z: 0}
    p1: {x: 73, y: 15, z: 0}
    uv0: {x: .748046875, y: .7890625, z: 0}
    uv1: {x: .829101562, y: .69921875, z: 0}
    flipped: 0
    gradientUv: []
    advance: 62
    channel: 0
  - p0: {x: -7, y: 107, z: 0}
    p1: {x: 65, y: 15, z: 0}
    uv0: {x: .397460938, y: .6875, z: 0}
    uv1: {x: .467773438, y: .59765625, z: 0}
    flipped: 0
    gradientUv: []
    advance: 57
    channel: 0
  - p0: {x: -3, y: 111, z: 0}
    p1: {x: 48, y: -4, z: 0}
    uv0: {x: .579101562, y: 1, z: 0}
    uv1: {x: .62890625, y: .887695312, z: 0}
    flipped: 0
    gradientUv: []
    advance: 42
    channel: 0
  - p0: {x: -12, y: 112, z: 0}
    p1: {x: 60, y: 2, z: 0}
    uv0: {x: .801757812, y: 1, z: 0}
    uv1: {x: .872070312, y: .892578125, z: 0}
    flipped: 0
    gradientUv: []
    advance: 47
    channel: 0
  - p0: {x: -6, y: 111, z: 0}
    p1: {x: 45, y: -4, z: 0}
    uv0: {x: .524414062, y: 1, z: 0}
    uv1: {x: .57421875, y: .887695312, z: 0}
    flipped: 0
    gradientUv: []
    advance: 42
    channel: 0
  - p0: {x: -6, y: 107, z: 0}
    p1: {x: 65, y: 45, z: 0}
    uv0: {x: .27734375, y: .416992188, z: 0}
    uv1: {x: .346679688, y: .356445312, z: 0}
    flipped: 0
    gradientUv: []
    advance: 59
    channel: 0
  - p0: {x: -10, y: 30, z: 0}
    p1: {x: 64, y: -2, z: 0}
    uv0: {x: .0625, y: .336914062, z: 0}
    uv1: {x: .134765625, y: .305664062, z: 0}
    flipped: 0
    gradientUv: []
    advance: 52
    channel: 0
  - p0: {x: -8, y: 124, z: 0}
    p1: {x: 43, y: 74, z: 0}
    uv0: {x: .52734375, y: .42578125, z: 0}
    uv1: {x: .577148438, y: .376953125, z: 0}
    flipped: 0
    gradientUv: []
    advance: 51
    channel: 0
  - p0: {x: -8, y: 89, z: 0}
    p1: {x: 66, y: 15, z: 0}
    uv0: {x: .298828125, y: .499023438, z: 0}
    uv1: {x: .37109375, y: .426757812, z: 0}
    flipped: 0
    gradientUv: []
    advance: 57
    channel: 0
  - p0: {x: -5, y: 112, z: 0}
    p1: {x: 63, y: 15, z: 0}
    uv0: {x: .422851562, y: .881835938, z: 0}
    uv1: {x: .489257812, y: .787109375, z: 0}
    flipped: 0
    gradientUv: []
    advance: 56
    channel: 0
  - p0: {x: -8, y: 90, z: 0}
    p1: {x: 54, y: 14, z: 0}
    uv0: {x: .0693359375, y: .489257812, z: 0}
    uv1: {x: .129882812, y: .415039062, z: 0}
    flipped: 0
    gradientUv: []
    advance: 44
    channel: 0
  - p0: {x: -8, y: 112, z: 0}
    p1: {x: 66, y: 15, z: 0}
    uv0: {x: .123046875, y: .87890625, z: 0}
    uv1: {x: .1953125, y: .784179688, z: 0}
    flipped: 0
    gradientUv: []
    advance: 57
    channel: 0
  - p0: {x: -8, y: 90, z: 0}
    p1: {x: 58, y: 14, z: 0}
    uv0: {x: 0, y: .489257812, z: 0}
    uv1: {x: .064453125, y: .415039062, z: 0}
    flipped: 0
    gradientUv: []
    advance: 50
    channel: 0
  - p0: {x: -11, y: 112, z: 0}
    p1: {x: 53, y: -8, z: 0}
    uv0: {x: .052734375, y: 1, z: 0}
    uv1: {x: .115234375, y: .8828125, z: 0}
    flipped: 0
    gradientUv: []
    advance: 38
    channel: 0
  - p0: {x: -8, y: 89, z: 0}
    p1: {x: 64, y: -7, z: 0}
    uv0: {x: .6171875, y: .8828125, z: 0}
    uv1: {x: .6875, y: .7890625, z: 0}
    flipped: 0
    gradientUv: []
    advance: 56
    channel: 0
  - p0: {x: -5, y: 112, z: 0}
    p1: {x: 62, y: 15, z: 0}
    uv0: {x: .494140625, y: .8828125, z: 0}
    uv1: {x: .559570312, y: .788085938, z: 0}
    flipped: 0
    gradientUv: []
    advance: 57
    channel: 0
  - p0: {x: -6, y: 114, z: 0}
    p1: {x: 40, y: 15, z: 0}
    uv0: {x: .0732421875, y: .877929688, z: 0}
    uv1: {x: .118164062, y: .78125, z: 0}
    flipped: 0
    gradientUv: []
    advance: 30
    channel: 0
  - p0: {x: -14, y: 114, z: 0}
    p1: {x: 35, y: -8, z: 0}
    uv0: {x: 0, y: 1, z: 0}
    uv1: {x: .0478515625, y: .880859375, z: 0}
    flipped: 0
    gradientUv: []
    advance: 28
    channel: 0
  - p0: {x: -5, y: 112, z: 0}
    p1: {x: 66, y: 15, z: 0}
    uv0: {x: .27734375, y: .880859375, z: 0}
    uv1: {x: .346679688, y: .786132812, z: 0}
    flipped: 0
    gradientUv: []
    advance: 56
    channel: 0
  - p0: {x: -5, y: 112, z: 0}
    p1: {x: 44, y: 15, z: 0}
    uv0: {x: .564453125, y: .8828125, z: 0}
    uv1: {x: .612304688, y: .788085938, z: 0}
    flipped: 0
    gradientUv: []
    advance: 33
    channel: 0
  - p0: {x: -9, y: 89, z: 0}
    p1: {x: 88, y: 15, z: 0}
    uv0: {x: .19921875, y: .494140625, z: 0}
    uv1: {x: .293945312, y: .421875, z: 0}
    flipped: 0
    gradientUv: []
    advance: 84
    channel: 0
  - p0: {x: -9, y: 89, z: 0}
    p1: {x: 63, y: 15, z: 0}
    uv0: {x: .375976562, y: .500976562, z: 0}
    uv1: {x: .446289062, y: .428710938, z: 0}
    flipped: 0
    gradientUv: []
    advance: 58
    channel: 0
  - p0: {x: -8, y: 90, z: 0}
    p1: {x: 62, y: 14, z: 0}
    uv0: {x: .916015625, y: .60546875, z: 0}
    uv1: {x: .984375, y: .53125, z: 0}
    flipped: 0
    gradientUv: []
    advance: 54
    channel: 0
  - p0: {x: -9, y: 89, z: 0}
    p1: {x: 65, y: -8, z: 0}
    uv0: {x: .200195312, y: .87890625, z: 0}
    uv1: {x: .272460938, y: .784179688, z: 0}
    flipped: 0
    gradientUv: []
    advance: 57
    channel: 0
  - p0: {x: -8, y: 89, z: 0}
    p1: {x: 60, y: -8, z: 0}
    uv0: {x: .3515625, y: .881835938, z: 0}
    uv1: {x: .41796875, y: .787109375, z: 0}
    flipped: 0
    gradientUv: []
    advance: 56
    channel: 0
  - p0: {x: -9, y: 89, z: 0}
    p1: {x: 52, y: 15, z: 0}
    uv0: {x: .451171875, y: .501953125, z: 0}
    uv1: {x: .510742188, y: .4296875, z: 0}
    flipped: 0
    gradientUv: []
    advance: 42
    channel: 0
  - p0: {x: -9, y: 89, z: 0}
    p1: {x: 52, y: 14, z: 0}
    uv0: {x: .134765625, y: .489257812, z: 0}
    uv1: {x: .194335938, y: .416015625, z: 0}
    flipped: 0
    gradientUv: []
    advance: 44
    channel: 0
  - p0: {x: -10, y: 102, z: 0}
    p1: {x: 51, y: 15, z: 0}
    uv0: {x: .572265625, y: .592773438, z: 0}
    uv1: {x: .631835938, y: .5078125, z: 0}
    flipped: 0
    gradientUv: []
    advance: 41
    channel: 0
  - p0: {x: -5, y: 88, z: 0}
    p1: {x: 67, y: 15, z: 0}
    uv0: {x: .69140625, y: .506835938, z: 0}
    uv1: {x: .76171875, y: .435546875, z: 0}
    flipped: 0
    gradientUv: []
    advance: 58
    channel: 0
  - p0: {x: -5, y: 88, z: 0}
    p1: {x: 62, y: 15, z: 0}
    uv0: {x: .766601562, y: .5078125, z: 0}
    uv1: {x: .83203125, y: .436523438, z: 0}
    flipped: 0
    gradientUv: []
    advance: 55
    channel: 0
  - p0: {x: -5, y: 88, z: 0}
    p1: {x: 88, y: 15, z: 0}
    uv0: {x: .515625, y: .501953125, z: 0}
    uv1: {x: .606445312, y: .430664062, z: 0}
    flipped: 0
    gradientUv: []
    advance: 81
    channel: 0
  - p0: {x: -12, y: 88, z: 0}
    p1: {x: 65, y: 15, z: 0}
    uv0: {x: .611328125, y: .502929688, z: 0}
    uv1: {x: .686523438, y: .431640625, z: 0}
    flipped: 0
    gradientUv: []
    advance: 53
    channel: 0
  - p0: {x: -5, y: 88, z: 0}
    p1: {x: 65, y: -7, z: 0}
    uv0: {x: .692382812, y: .88671875, z: 0}
    uv1: {x: .760742188, y: .793945312, z: 0}
    flipped: 0
    gradientUv: []
    advance: 57
    channel: 0
  - p0: {x: -8, y: 88, z: 0}
    p1: {x: 53, y: 15, z: 0}
    uv0: {x: .836914062, y: .516601562, z: 0}
    uv1: {x: .896484375, y: .4453125, z: 0}
    flipped: 0
    gradientUv: []
    advance: 44
    channel: 0
  - p0: {x: -5, y: 112, z: 0}
    p1: {x: 52, y: -7, z: 0}
    uv0: {x: .120117188, y: 1, z: 0}
    uv1: {x: .17578125, y: .883789062, z: 0}
    flipped: 0
    gradientUv: []
    advance: 42
    channel: 0
  - p0: {x: -1, y: 112, z: 0}
    p1: {x: 36, y: 2, z: 0}
    uv0: {x: .952148438, y: 1, z: 0}
    uv1: {x: .98828125, y: .892578125, z: 0}
    flipped: 0
    gradientUv: []
    advance: 35
    channel: 0
  - p0: {x: -9, y: 112, z: 0}
    p1: {x: 47, y: -7, z: 0}
    uv0: {x: .180664062, y: 1, z: 0}
    uv1: {x: .235351562, y: .883789062, z: 0}
    flipped: 0
    gradientUv: []
    advance: 42
    channel: 0
  - p0: {x: -6, y: 78, z: 0}
    p1: {x: 63, y: 40, z: 0}
    uv0: {x: .923828125, y: .443359375, z: 0}
    uv1: {x: .991210938, y: .40625, z: 0}
    flipped: 0
    gradientUv: []
    advance: 57
    channel: 0
  - p0: {x: 0, y: 0, z: 0}
    p1: {x: 0, y: 0, z: 0}
    uv0: {x: 0, y: 0, z: 0}
    uv1: {x: 0, y: 0, z: 0}
    flipped: 0
    gradientUv:
    - {x: 0, y: 0}
    - {x: 0, y: 0}
    - {x: 0, y: 0}
    - {x: 0, y: 0}
    advance: 0
    channel: 0
  - p0: {x: 0, y: 0, z: 0}
    p1: {x: 0, y: 0, z: 0}
    uv0: {x: 0, y: 0, z: 0}
    uv1: {x: 0, y: 0, z: 0}
    flipped: 0
    gradientUv:
    - {x: 0, y: 0}
    - {x: 0, y: 0}
    - {x: 0, y: 0}
    - {x: 0, y: 0}
    advance: 0
    channel: 0
  - p0: {x: 0, y: 0, z: 0}
    p1: {x: 0, y: 0, z: 0}
    uv0: {x: 0, y: 0, z: 0}
    uv1: {x: 0, y: 0, z: 0}
    flipped: 0
    gradientUv:
    - {x: 0, y: 0}
    - {x: 0, y: 0}
    - {x: 0, y: 0}
    - {x: 0, y: 0}
    advance: 0
    channel: 0
  - p0: {x: 0, y: 0, z: 0}
    p1: {x: 0, y: 0, z: 0}
    uv0: {x: 0, y: 0, z: 0}
    uv1: {x: 0, y: 0, z: 0}
    flipped: 0
    gradientUv:
    - {x: 0, y: 0}
    - {x: 0, y: 0}
    - {x: 0, y: 0}
    - {x: 0, y: 0}
    advance: 0
    channel: 0
  - p0: {x: 0, y: 0, z: 0}
    p1: {x: 0, y: 0, z: 0}
    uv0: {x: 0, y: 0, z: 0}
    uv1: {x: 0, y: 0, z: 0}
    flipped: 0
    gradientUv:
    - {x: 0, y: 0}
    - {x: 0, y: 0}
    - {x: 0, y: 0}
    - {x: 0, y: 0}
    advance: 0
    channel: 0
  - p0: {x: 0, y: 0, z: 0}
    p1: {x: 0, y: 0, z: 0}
    uv0: {x: 0, y: 0, z: 0}
    uv1: {x: 0, y: 0, z: 0}
    flipped: 0
    gradientUv:
    - {x: 0, y: 0}
    - {x: 0, y: 0}
    - {x: 0, y: 0}
    - {x: 0, y: 0}
    advance: 0
    channel: 0
  - p0: {x: 0, y: 0, z: 0}
    p1: {x: 0, y: 0, z: 0}
    uv0: {x: 0, y: 0, z: 0}
    uv1: {x: 0, y: 0, z: 0}
    flipped: 0
    gradientUv:
    - {x: 0, y: 0}
    - {x: 0, y: 0}
    - {x: 0, y: 0}
    - {x: 0, y: 0}
    advance: 0
    channel: 0
  - p0: {x: 0, y: 0, z: 0}
    p1: {x: 0, y: 0, z: 0}
    uv0: {x: 0, y: 0, z: 0}
    uv1: {x: 0, y: 0, z: 0}
    flipped: 0
    gradientUv:
    - {x: 0, y: 0}
    - {x: 0, y: 0}
    - {x: 0, y: 0}
    - {x: 0, y: 0}
    advance: 0
    channel: 0
  - p0: {x: 0, y: 0, z: 0}
    p1: {x: 0, y: 0, z: 0}
    uv0: {x: 0, y: 0, z: 0}
    uv1: {x: 0, y: 0, z: 0}
    flipped: 0
    gradientUv:
    - {x: 0, y: 0}
    - {x: 0, y: 0}
    - {x: 0, y: 0}
    - {x: 0, y: 0}
    advance: 0
    channel: 0
  - p0: {x: 0, y: 0, z: 0}
    p1: {x: 0, y: 0, z: 0}
    uv0: {x: 0, y: 0, z: 0}
    uv1: {x: 0, y: 0, z: 0}
    flipped: 0
    gradientUv:
    - {x: 0, y: 0}
    - {x: 0, y: 0}
    - {x: 0, y: 0}
    - {x: 0, y: 0}
    advance: 0
    channel: 0
  - p0: {x: 0, y: 0, z: 0}
    p1: {x: 0, y: 0, z: 0}
    uv0: {x: 0, y: 0, z: 0}
    uv1: {x: 0, y: 0, z: 0}
    flipped: 0
    gradientUv:
    - {x: 0, y: 0}
    - {x: 0, y: 0}
    - {x: 0, y: 0}
    - {x: 0, y: 0}
    advance: 0
    channel: 0
  - p0: {x: 0, y: 0, z: 0}
    p1: {x: 0, y: 0, z: 0}
    uv0: {x: 0, y: 0, z: 0}
    uv1: {x: 0, y: 0, z: 0}
    flipped: 0
    gradientUv:
    - {x: 0, y: 0}
    - {x: 0, y: 0}
    - {x: 0, y: 0}
    - {x: 0, y: 0}
    advance: 0
    channel: 0
  - p0: {x: 0, y: 0, z: 0}
    p1: {x: 0, y: 0, z: 0}
    uv0: {x: 0, y: 0, z: 0}
    uv1: {x: 0, y: 0, z: 0}
    flipped: 0
    gradientUv:
    - {x: 0, y: 0}
    - {x: 0, y: 0}
    - {x: 0, y: 0}
    - {x: 0, y: 0}
    advance: 0
    channel: 0
  - p0: {x: 0, y: 0, z: 0}
    p1: {x: 0, y: 0, z: 0}
    uv0: {x: 0, y: 0, z: 0}
    uv1: {x: 0, y: 0, z: 0}
    flipped: 0
    gradientUv:
    - {x: 0, y: 0}
    - {x: 0, y: 0}
    - {x: 0, y: 0}
    - {x: 0, y: 0}
    advance: 0
    channel: 0
  - p0: {x: 0, y: 0, z: 0}
    p1: {x: 0, y: 0, z: 0}
    uv0: {x: 0, y: 0, z: 0}
    uv1: {x: 0, y: 0, z: 0}
    flipped: 0
    gradientUv:
    - {x: 0, y: 0}
    - {x: 0, y: 0}
    - {x: 0, y: 0}
    - {x: 0, y: 0}
    advance: 0
    channel: 0
  - p0: {x: 0, y: 0, z: 0}
    p1: {x: 0, y: 0, z: 0}
    uv0: {x: 0, y: 0, z: 0}
    uv1: {x: 0, y: 0, z: 0}
    flipped: 0
    gradientUv:
    - {x: 0, y: 0}
    - {x: 0, y: 0}
    - {x: 0, y: 0}
    - {x: 0, y: 0}
    advance: 0
    channel: 0
  - p0: {x: 0, y: 0, z: 0}
    p1: {x: 0, y: 0, z: 0}
    uv0: {x: 0, y: 0, z: 0}
    uv1: {x: 0, y: 0, z: 0}
    flipped: 0
    gradientUv:
    - {x: 0, y: 0}
    - {x: 0, y: 0}
    - {x: 0, y: 0}
    - {x: 0, y: 0}
    advance: 0
    channel: 0
  - p0: {x: 0, y: 0, z: 0}
    p1: {x: 0, y: 0, z: 0}
    uv0: {x: 0, y: 0, z: 0}
    uv1: {x: 0, y: 0, z: 0}
    flipped: 0
    gradientUv:
    - {x: 0, y: 0}
    - {x: 0, y: 0}
    - {x: 0, y: 0}
    - {x: 0, y: 0}
    advance: 0
    channel: 0
  - p0: {x: 0, y: 0, z: 0}
    p1: {x: 0, y: 0, z: 0}
    uv0: {x: 0, y: 0, z: 0}
    uv1: {x: 0, y: 0, z: 0}
    flipped: 0
    gradientUv:
    - {x: 0, y: 0}
    - {x: 0, y: 0}
    - {x: 0, y: 0}
    - {x: 0, y: 0}
    advance: 0
    channel: 0
  - p0: {x: 0, y: 0, z: 0}
    p1: {x: 0, y: 0, z: 0}
    uv0: {x: 0, y: 0, z: 0}
    uv1: {x: 0, y: 0, z: 0}
    flipped: 0
    gradientUv:
    - {x: 0, y: 0}
    - {x: 0, y: 0}
    - {x: 0, y: 0}
    - {x: 0, y: 0}
    advance: 0
    channel: 0
  - p0: {x: 0, y: 0, z: 0}
    p1: {x: 0, y: 0, z: 0}
    uv0: {x: 0, y: 0, z: 0}
    uv1: {x: 0, y: 0, z: 0}
    flipped: 0
    gradientUv:
    - {x: 0, y: 0}
    - {x: 0, y: 0}
    - {x: 0, y: 0}
    - {x: 0, y: 0}
    advance: 0
    channel: 0
  - p0: {x: 0, y: 0, z: 0}
    p1: {x: 0, y: 0, z: 0}
    uv0: {x: 0, y: 0, z: 0}
    uv1: {x: 0, y: 0, z: 0}
    flipped: 0
    gradientUv:
    - {x: 0, y: 0}
    - {x: 0, y: 0}
    - {x: 0, y: 0}
    - {x: 0, y: 0}
    advance: 0
    channel: 0
  - p0: {x: 0, y: 0, z: 0}
    p1: {x: 0, y: 0, z: 0}
    uv0: {x: 0, y: 0, z: 0}
    uv1: {x: 0, y: 0, z: 0}
    flipped: 0
    gradientUv:
    - {x: 0, y: 0}
    - {x: 0, y: 0}
    - {x: 0, y: 0}
    - {x: 0, y: 0}
    advance: 0
    channel: 0
  - p0: {x: 0, y: 0, z: 0}
    p1: {x: 0, y: 0, z: 0}
    uv0: {x: 0, y: 0, z: 0}
    uv1: {x: 0, y: 0, z: 0}
    flipped: 0
    gradientUv:
    - {x: 0, y: 0}
    - {x: 0, y: 0}
    - {x: 0, y: 0}
    - {x: 0, y: 0}
    advance: 0
    channel: 0
  - p0: {x: 0, y: 0, z: 0}
    p1: {x: 0, y: 0, z: 0}
    uv0: {x: 0, y: 0, z: 0}
    uv1: {x: 0, y: 0, z: 0}
    flipped: 0
    gradientUv:
    - {x: 0, y: 0}
    - {x: 0, y: 0}
    - {x: 0, y: 0}
    - {x: 0, y: 0}
    advance: 0
    channel: 0
  - p0: {x: 0, y: 0, z: 0}
    p1: {x: 0, y: 0, z: 0}
    uv0: {x: 0, y: 0, z: 0}
    uv1: {x: 0, y: 0, z: 0}
    flipped: 0
    gradientUv:
    - {x: 0, y: 0}
    - {x: 0, y: 0}
    - {x: 0, y: 0}
    - {x: 0, y: 0}
    advance: 0
    channel: 0
  - p0: {x: 0, y: 0, z: 0}
    p1: {x: 0, y: 0, z: 0}
    uv0: {x: 0, y: 0, z: 0}
    uv1: {x: 0, y: 0, z: 0}
    flipped: 0
    gradientUv:
    - {x: 0, y: 0}
    - {x: 0, y: 0}
    - {x: 0, y: 0}
    - {x: 0, y: 0}
    advance: 0
    channel: 0
  - p0: {x: 0, y: 0, z: 0}
    p1: {x: 0, y: 0, z: 0}
    uv0: {x: 0, y: 0, z: 0}
    uv1: {x: 0, y: 0, z: 0}
    flipped: 0
    gradientUv:
    - {x: 0, y: 0}
    - {x: 0, y: 0}
    - {x: 0, y: 0}
    - {x: 0, y: 0}
    advance: 0
    channel: 0
  - p0: {x: 0, y: 0, z: 0}
    p1: {x: 0, y: 0, z: 0}
    uv0: {x: 0, y: 0, z: 0}
    uv1: {x: 0, y: 0, z: 0}
    flipped: 0
    gradientUv:
    - {x: 0, y: 0}
    - {x: 0, y: 0}
    - {x: 0, y: 0}
    - {x: 0, y: 0}
    advance: 0
    channel: 0
  - p0: {x: 0, y: 0, z: 0}
    p1: {x: 0, y: 0, z: 0}
    uv0: {x: 0, y: 0, z: 0}
    uv1: {x: 0, y: 0, z: 0}
    flipped: 0
    gradientUv:
    - {x: 0, y: 0}
    - {x: 0, y: 0}
    - {x: 0, y: 0}
    - {x: 0, y: 0}
    advance: 0
    channel: 0
  - p0: {x: 0, y: 0, z: 0}
    p1: {x: 0, y: 0, z: 0}
    uv0: {x: 0, y: 0, z: 0}
    uv1: {x: 0, y: 0, z: 0}
    flipped: 0
    gradientUv:
    - {x: 0, y: 0}
    - {x: 0, y: 0}
    - {x: 0, y: 0}
    - {x: 0, y: 0}
    advance: 0
    channel: 0
  - p0: {x: 0, y: 0, z: 0}
    p1: {x: 0, y: 0, z: 0}
    uv0: {x: 0, y: 0, z: 0}
    uv1: {x: 0, y: 0, z: 0}
    flipped: 0
    gradientUv:
    - {x: 0, y: 0}
    - {x: 0, y: 0}
    - {x: 0, y: 0}
    - {x: 0, y: 0}
    advance: 0
    channel: 0
  - p0: {x: 0, y: 0, z: 0}
    p1: {x: 0, y: 0, z: 0}
    uv0: {x: 0, y: 0, z: 0}
    uv1: {x: 0, y: 0, z: 0}
    flipped: 0
    gradientUv:
    - {x: 0, y: 0}
    - {x: 0, y: 0}
    - {x: 0, y: 0}
    - {x: 0, y: 0}
    advance: 0
    channel: 0
  - p0: {x: -10, y: 11, z: 0}
    p1: {x: 10, y: -10, z: 0}
    uv0: {x: .334960938, y: .3515625, z: 0}
    uv1: {x: .354492188, y: .331054688, z: 0}
    flipped: 0
    gradientUv: []
    advance: 27
    channel: 0
  - p0: {x: 0, y: 0, z: 0}
    p1: {x: 0, y: 0, z: 0}
    uv0: {x: 0, y: 0, z: 0}
    uv1: {x: 0, y: 0, z: 0}
    flipped: 0
    gradientUv:
    - {x: 0, y: 0}
    - {x: 0, y: 0}
    - {x: 0, y: 0}
    - {x: 0, y: 0}
    advance: 0
    channel: 0
  - p0: {x: 0, y: 0, z: 0}
    p1: {x: 0, y: 0, z: 0}
    uv0: {x: 0, y: 0, z: 0}
    uv1: {x: 0, y: 0, z: 0}
    flipped: 0
    gradientUv:
    - {x: 0, y: 0}
    - {x: 0, y: 0}
    - {x: 0, y: 0}
    - {x: 0, y: 0}
    advance: 0
    channel: 0
  - p0: {x: 0, y: 0, z: 0}
    p1: {x: 0, y: 0, z: 0}
    uv0: {x: 0, y: 0, z: 0}
    uv1: {x: 0, y: 0, z: 0}
    flipped: 0
    gradientUv:
    - {x: 0, y: 0}
    - {x: 0, y: 0}
    - {x: 0, y: 0}
    - {x: 0, y: 0}
    advance: 0
    channel: 0
  - p0: {x: 0, y: 0, z: 0}
    p1: {x: 0, y: 0, z: 0}
    uv0: {x: 0, y: 0, z: 0}
    uv1: {x: 0, y: 0, z: 0}
    flipped: 0
    gradientUv:
    - {x: 0, y: 0}
    - {x: 0, y: 0}
    - {x: 0, y: 0}
    - {x: 0, y: 0}
    advance: 0
    channel: 0
  - p0: {x: 0, y: 0, z: 0}
    p1: {x: 0, y: 0, z: 0}
    uv0: {x: 0, y: 0, z: 0}
    uv1: {x: 0, y: 0, z: 0}
    flipped: 0
    gradientUv:
    - {x: 0, y: 0}
    - {x: 0, y: 0}
    - {x: 0, y: 0}
    - {x: 0, y: 0}
    advance: 0
    channel: 0
  - p0: {x: 0, y: 0, z: 0}
    p1: {x: 0, y: 0, z: 0}
    uv0: {x: 0, y: 0, z: 0}
    uv1: {x: 0, y: 0, z: 0}
    flipped: 0
    gradientUv:
    - {x: 0, y: 0}
    - {x: 0, y: 0}
    - {x: 0, y: 0}
    - {x: 0, y: 0}
    advance: 0
    channel: 0
  - p0: {x: 0, y: 0, z: 0}
    p1: {x: 0, y: 0, z: 0}
    uv0: {x: 0, y: 0, z: 0}
    uv1: {x: 0, y: 0, z: 0}
    flipped: 0
    gradientUv:
    - {x: 0, y: 0}
    - {x: 0, y: 0}
    - {x: 0, y: 0}
    - {x: 0, y: 0}
    advance: 0
    channel: 0
  - p0: {x: -4, y: 112, z: 0}
    p1: {x: 55, y: 75, z: 0}
    uv0: {x: 0, y: .336914062, z: 0}
    uv1: {x: .0576171875, y: .30078125, z: 0}
    flipped: 0
    gradientUv: []
    advance: 51
    channel: 0
  - p0: {x: 0, y: 0, z: 0}
    p1: {x: 0, y: 0, z: 0}
    uv0: {x: 0, y: 0, z: 0}
    uv1: {x: 0, y: 0, z: 0}
    flipped: 0
    gradientUv:
    - {x: 0, y: 0}
    - {x: 0, y: 0}
    - {x: 0, y: 0}
    - {x: 0, y: 0}
    advance: 0
    channel: 0
  - p0: {x: 0, y: 0, z: 0}
    p1: {x: 0, y: 0, z: 0}
    uv0: {x: 0, y: 0, z: 0}
    uv1: {x: 0, y: 0, z: 0}
    flipped: 0
    gradientUv:
    - {x: 0, y: 0}
    - {x: 0, y: 0}
    - {x: 0, y: 0}
    - {x: 0, y: 0}
    advance: 0
    channel: 0
  - p0: {x: -6, y: 86, z: 0}
    p1: {x: 71, y: 16, z: 0}
    uv0: {x: .901367188, y: .516601562, z: 0}
    uv1: {x: .9765625, y: .448242188, z: 0}
    flipped: 0
    gradientUv: []
    advance: 63
    channel: 0
  - p0: {x: 0, y: 0, z: 0}
    p1: {x: 0, y: 0, z: 0}
    uv0: {x: 0, y: 0, z: 0}
    uv1: {x: 0, y: 0, z: 0}
    flipped: 0
    gradientUv:
    - {x: 0, y: 0}
    - {x: 0, y: 0}
    - {x: 0, y: 0}
    - {x: 0, y: 0}
    advance: 0
    channel: 0
  - p0: {x: -6, y: 75, z: 0}
    p1: {x: 46, y: 43, z: 0}
    uv0: {x: .254882812, y: .350585938, z: 0}
    uv1: {x: .305664062, y: .319335938, z: 0}
    flipped: 0
    gradientUv: []
    advance: 39
    channel: 0
  - p0: {x: 0, y: 0, z: 0}
    p1: {x: 0, y: 0, z: 0}
    uv0: {x: 0, y: 0, z: 0}
    uv1: {x: 0, y: 0, z: 0}
    flipped: 0
    gradientUv:
    - {x: 0, y: 0}
    - {x: 0, y: 0}
    - {x: 0, y: 0}
    - {x: 0, y: 0}
    advance: 0
    channel: 0
  - p0: {x: -3, y: 107, z: 0}
    p1: {x: 53, y: 75, z: 0}
    uv0: {x: .139648438, y: .338867188, z: 0}
    uv1: {x: .194335938, y: .307617188, z: 0}
    flipped: 0
    gradientUv: []
    advance: 51
    channel: 0
  - p0: {x: -7, y: 111, z: 0}
    p1: {x: 40, y: 65, z: 0}
    uv0: {x: .78515625, y: .431640625, z: 0}
    uv1: {x: .831054688, y: .38671875, z: 0}
    flipped: 0
    gradientUv: []
    advance: 32
    channel: 0
  - p0: {x: 0, y: 0, z: 0}
    p1: {x: 0, y: 0, z: 0}
    uv0: {x: 0, y: 0, z: 0}
    uv1: {x: 0, y: 0, z: 0}
    flipped: 0
    gradientUv:
    - {x: 0, y: 0}
    - {x: 0, y: 0}
    - {x: 0, y: 0}
    - {x: 0, y: 0}
    advance: 0
    channel: 0
  - p0: {x: 0, y: 0, z: 0}
    p1: {x: 0, y: 0, z: 0}
    uv0: {x: 0, y: 0, z: 0}
    uv1: {x: 0, y: 0, z: 0}
    flipped: 0
    gradientUv:
    - {x: 0, y: 0}
    - {x: 0, y: 0}
    - {x: 0, y: 0}
    - {x: 0, y: 0}
    advance: 0
    channel: 0
  - p0: {x: 0, y: 0, z: 0}
    p1: {x: 0, y: 0, z: 0}
    uv0: {x: 0, y: 0, z: 0}
    uv1: {x: 0, y: 0, z: 0}
    flipped: 0
    gradientUv:
    - {x: 0, y: 0}
    - {x: 0, y: 0}
    - {x: 0, y: 0}
    - {x: 0, y: 0}
    advance: 0
    channel: 0
  - p0: {x: 4, y: 124, z: 0}
    p1: {x: 55, y: 74, z: 0}
    uv0: {x: .58203125, y: .42578125, z: 0}
    uv1: {x: .631835938, y: .376953125, z: 0}
    flipped: 0
    gradientUv: []
    advance: 51
    channel: 0
  - p0: {x: 0, y: 0, z: 0}
    p1: {x: 0, y: 0, z: 0}
    uv0: {x: 0, y: 0, z: 0}
    uv1: {x: 0, y: 0, z: 0}
    flipped: 0
    gradientUv:
    - {x: 0, y: 0}
    - {x: 0, y: 0}
    - {x: 0, y: 0}
    - {x: 0, y: 0}
    advance: 0
    channel: 0
  - p0: {x: 0, y: 0, z: 0}
    p1: {x: 0, y: 0, z: 0}
    uv0: {x: 0, y: 0, z: 0}
    uv1: {x: 0, y: 0, z: 0}
    flipped: 0
    gradientUv:
    - {x: 0, y: 0}
    - {x: 0, y: 0}
    - {x: 0, y: 0}
    - {x: 0, y: 0}
    advance: 0
    channel: 0
  - p0: {x: -6, y: 78, z: 0}
    p1: {x: 34, y: 38, z: 0}
    uv0: {x: .8359375, y: .431640625, z: 0}
    uv1: {x: .875, y: .392578125, z: 0}
    flipped: 0
    gradientUv: []
    advance: 27
    channel: 0
  - p0: {x: 1, y: 37, z: 0}
    p1: {x: 48, y: -10, z: 0}
    uv0: {x: .734375, y: .430664062, z: 0}
    uv1: {x: .780273438, y: .384765625, z: 0}
    flipped: 0
    gradientUv: []
    advance: 51
    channel: 0
  - p0: {x: 0, y: 0, z: 0}
    p1: {x: 0, y: 0, z: 0}
    uv0: {x: 0, y: 0, z: 0}
    uv1: {x: 0, y: 0, z: 0}
    flipped: 0
    gradientUv:
    - {x: 0, y: 0}
    - {x: 0, y: 0}
    - {x: 0, y: 0}
    - {x: 0, y: 0}
    advance: 0
    channel: 0
  - p0: {x: 0, y: 0, z: 0}
    p1: {x: 0, y: 0, z: 0}
    uv0: {x: 0, y: 0, z: 0}
    uv1: {x: 0, y: 0, z: 0}
    flipped: 0
    gradientUv:
    - {x: 0, y: 0}
    - {x: 0, y: 0}
    - {x: 0, y: 0}
    - {x: 0, y: 0}
    advance: 0
    channel: 0
  - p0: {x: -8, y: 86, z: 0}
    p1: {x: 69, y: 16, z: 0}
    uv0: {x: 0, y: .41015625, z: 0}
    uv1: {x: .0751953125, y: .341796875, z: 0}
    flipped: 0
    gradientUv: []
    advance: 63
    channel: 0
  charDictKeys: 
  charDictValues: []
  fontPlatforms: []
  fontPlatformGUIDs: []
  hasPlatformData: 0
  managedFont: 0
  needMaterialInstance: 0
  isPacked: 0
  premultipliedAlpha: 0
  spriteCollection: {fileID: 0}
  useDictionary: 0
  kerning:
  - c0: 107
    c1: 110
    amount: -2
  - c0: 107
    c1: 111
    amount: -2
  - c0: 107
    c1: 117
    amount: -2
  - c0: 107
    c1: 115
    amount: -1
  - c0: 107
    c1: 116
    amount: -2
  - c0: 107
    c1: 46
    amount: -2
  - c0: 107
    c1: 44
    amount: -3
  - c0: 103
    c1: 183
    amount: -2
  - c0: 107
    c1: 73
    amount: -1
  - c0: 107
    c1: 74
    amount: -1
  - c0: 103
    c1: 93
    amount: -2
  - c0: 107
    c1: 84
    amount: -8
  - c0: 107
    c1: 85
    amount: -1
  - c0: 107
    c1: 86
    amount: -6
  - c0: 107
    c1: 87
    amount: -4
  - c0: 107
    c1: 83
    amount: -2
  - c0: 107
    c1: 90
    amount: -1
  - c0: 107
    c1: 89
    amount: -5
  - c0: 103
    c1: 42
    amount: -3
  - c0: 103
    c1: 39
    amount: -1
  - c0: 107
    c1: 45
    amount: -1
  - c0: 107
    c1: 92
    amount: -2
  - c0: 103
    c1: 63
    amount: -3
  - c0: 107
    c1: 38
    amount: -1
  - c0: 107
    c1: 41
    amount: -4
  - c0: 107
    c1: 33
    amount: -5
  - c0: 107
    c1: 63
    amount: -2
  - c0: 107
    c1: 39
    amount: -1
  - c0: 107
    c1: 42
    amount: -3
  - c0: 107
    c1: 93
    amount: -2
  - c0: 107
    c1: 183
    amount: -2
  - c0: 107
    c1: 125
    amount: -3
  - c0: 103
    c1: 41
    amount: -2
  - c0: 103
    c1: 92
    amount: -6
  - c0: 103
    c1: 88
    amount: -1
  - c0: 103
    c1: 89
    amount: -6
  - c0: 103
    c1: 83
    amount: -1
  - c0: 110
    c1: 73
    amount: -1
  - c0: 110
    c1: 74
    amount: -1
  - c0: 103
    c1: 87
    amount: -4
  - c0: 110
    c1: 84
    amount: -8
  - c0: 110
    c1: 85
    amount: -1
  - c0: 110
    c1: 86
    amount: -5
  - c0: 110
    c1: 87
    amount: -2
  - c0: 110
    c1: 83
    amount: -1
  - c0: 110
    c1: 90
    amount: -1
  - c0: 110
    c1: 89
    amount: -6
  - c0: 103
    c1: 86
    amount: -5
  - c0: 110
    c1: 92
    amount: -3
  - c0: 103
    c1: 85
    amount: -1
  - c0: 110
    c1: 63
    amount: -2
  - c0: 110
    c1: 39
    amount: -1
  - c0: 110
    c1: 42
    amount: -2
  - c0: 103
    c1: 84
    amount: -7
  - c0: 103
    c1: 74
    amount: 3
  - c0: 103
    c1: 73
    amount: -1
  - c0: 101
    c1: 117
    amount: -1
  - c0: 101
    c1: 116
    amount: -1
  - c0: 101
    c1: 46
    amount: -2
  - c0: 101
    c1: 44
    amount: -4
  - c0: 103
    c1: 44
    amount: -1
  - c0: 103
    c1: 116
    amount: -2
  - c0: 101
    c1: 84
    amount: -6
  - c0: 101
    c1: 85
    amount: -1
  - c0: 101
    c1: 86
    amount: -5
  - c0: 101
    c1: 87
    amount: -4
  - c0: 101
    c1: 83
    amount: -1
  - c0: 101
    c1: 90
    amount: -2
  - c0: 101
    c1: 89
    amount: -6
  - c0: 101
    c1: 88
    amount: -2
  - c0: 103
    c1: 115
    amount: -1
  - c0: 103
    c1: 110
    amount: -1
  - c0: 101
    c1: 45
    amount: -2
  - c0: 101
    c1: 92
    amount: -2
  - c0: 101
    c1: 38
    amount: -1
  - c0: 101
    c1: 41
    amount: -3
  - c0: 101
    c1: 33
    amount: -3
  - c0: 101
    c1: 63
    amount: -1
  - c0: 101
    c1: 42
    amount: -1
  - c0: 101
    c1: 93
    amount: -2
  - c0: 101
    c1: 183
    amount: -1
  - c0: 100
    c1: 85
    amount: -1
  - c0: 100
    c1: 84
    amount: -1
  - c0: 97
    c1: 110
    amount: -2
  - c0: 97
    c1: 79
    amount: -1
  - c0: 97
    c1: 73
    amount: -1
  - c0: 97
    c1: 74
    amount: -1
  - c0: 97
    c1: 81
    amount: -1
  - c0: 97
    c1: 84
    amount: -7
  - c0: 97
    c1: 85
    amount: -1
  - c0: 97
    c1: 86
    amount: -6
  - c0: 97
    c1: 87
    amount: -3
  - c0: 97
    c1: 83
    amount: -1
  - c0: 97
    c1: 89
    amount: -6
  - c0: 97
    c1: 88
    amount: -1
  - c0: 100
    c1: 81
    amount: -1
  - c0: 97
    c1: 45
    amount: -2
  - c0: 97
    c1: 92
    amount: -3
  - c0: 100
    c1: 74
    amount: -1
  - c0: 100
    c1: 73
    amount: -1
  - c0: 97
    c1: 41
    amount: -2
  - c0: 97
    c1: 63
    amount: -1
  - c0: 97
    c1: 39
    amount: -1
  - c0: 97
    c1: 42
    amount: -2
  - c0: 97
    c1: 93
    amount: -1
  - c0: 97
    c1: 183
    amount: -3
  - c0: 100
    c1: 79
    amount: -1
  - c0: 176
    c1: 48
    amount: -1
  - c0: 176
    c1: 54
    amount: -1
  - c0: 111
    c1: 120
    amount: -2
  - c0: 111
    c1: 122
    amount: -1
  - c0: 111
    c1: 46
    amount: -2
  - c0: 111
    c1: 44
    amount: -5
  - c0: 111
    c1: 73
    amount: -1
  - c0: 111
    c1: 74
    amount: -1
  - c0: 111
    c1: 84
    amount: -6
  - c0: 111
    c1: 85
    amount: -1
  - c0: 176
    c1: 52
    amount: -2
  - c0: 111
    c1: 86
    amount: -5
  - c0: 111
    c1: 87
    amount: -3
  - c0: 111
    c1: 83
    amount: -3
  - c0: 111
    c1: 90
    amount: -2
  - c0: 111
    c1: 89
    amount: -7
  - c0: 111
    c1: 88
    amount: -2
  - c0: 123
    c1: 40
    amount: -1
  - c0: 111
    c1: 92
    amount: -3
  - c0: 111
    c1: 33
    amount: -3
  - c0: 111
    c1: 63
    amount: -2
  - c0: 123
    c1: 48
    amount: -2
  - c0: 111
    c1: 39
    amount: -2
  - c0: 111
    c1: 42
    amount: -2
  - c0: 123
    c1: 56
    amount: -1
  - c0: 123
    c1: 54
    amount: -2
  - c0: 123
    c1: 52
    amount: -2
  - c0: 113
    c1: 106
    amount: 1
  - c0: 113
    c1: 44
    amount: -2
  - c0: 113
    c1: 73
    amount: -1
  - c0: 123
    c1: 49
    amount: -1
  - c0: 123
    c1: 77
    amount: -1
  - c0: 113
    c1: 84
    amount: -8
  - c0: 113
    c1: 85
    amount: -1
  - c0: 113
    c1: 86
    amount: -6
  - c0: 113
    c1: 87
    amount: -3
  - c0: 113
    c1: 83
    amount: -1
  - c0: 113
    c1: 90
    amount: -2
  - c0: 113
    c1: 89
    amount: -7
  - c0: 113
    c1: 88
    amount: -1
  - c0: 123
    c1: 89
    amount: 2
  - c0: 113
    c1: 92
    amount: -2
  - c0: 123
    c1: 83
    amount: -1
  - c0: 113
    c1: 41
    amount: -2
  - c0: 113
    c1: 63
    amount: -3
  - c0: 113
    c1: 93
    amount: -1
  - c0: 123
    c1: 87
    amount: 1
  - c0: 117
    c1: 79
    amount: -1
  - c0: 117
    c1: 73
    amount: -1
  - c0: 117
    c1: 74
    amount: -1
  - c0: 117
    c1: 81
    amount: -1
  - c0: 117
    c1: 84
    amount: -8
  - c0: 117
    c1: 85
    amount: -1
  - c0: 117
    c1: 86
    amount: -5
  - c0: 117
    c1: 87
    amount: -3
  - c0: 117
    c1: 83
    amount: -1
  - c0: 117
    c1: 89
    amount: -6
  - c0: 123
    c1: 86
    amount: 2
  - c0: 123
    c1: 65
    amount: -1
  - c0: 117
    c1: 45
    amount: -2
  - c0: 117
    c1: 92
    amount: -2
  - c0: 123
    c1: 84
    amount: 1
  - c0: 123
    c1: 81
    amount: -1
  - c0: 117
    c1: 41
    amount: -5
  - c0: 117
    c1: 63
    amount: -3
  - c0: 117
    c1: 39
    amount: -1
  - c0: 117
    c1: 42
    amount: -1
  - c0: 117
    c1: 93
    amount: -2
  - c0: 117
    c1: 183
    amount: -2
  - c0: 117
    c1: 125
    amount: -2
  - c0: 123
    c1: 74
    amount: 5
  - c0: 123
    c1: 79
    amount: -1
  - c0: 123
    c1: 122
    amount: -2
  - c0: 123
    c1: 120
    amount: -1
  - c0: 105
    c1: 79
    amount: -1
  - c0: 105
    c1: 73
    amount: -1
  - c0: 105
    c1: 74
    amount: -1
  - c0: 105
    c1: 81
    amount: -1
  - c0: 105
    c1: 84
    amount: -1
  - c0: 105
    c1: 85
    amount: -1
  - c0: 123
    c1: 116
    amount: -1
  - c0: 105
    c1: 87
    amount: -1
  - c0: 105
    c1: 89
    amount: -1
  - c0: 123
    c1: 102
    amount: 1
  - c0: 105
    c1: 45
    amount: -1
  - c0: 123
    c1: 106
    amount: 5
  - c0: 105
    c1: 63
    amount: -1
  - c0: 105
    c1: 39
    amount: -1
  - c0: 105
    c1: 42
    amount: -3
  - c0: 123
    c1: 115
    amount: -2
  - c0: 123
    c1: 117
    amount: -2
  - c0: 183
    c1: 88
    amount: -8
  - c0: 183
    c1: 89
    amount: -6
  - c0: 183
    c1: 90
    amount: -3
  - c0: 115
    c1: 102
    amount: -1
  - c0: 115
    c1: 46
    amount: -2
  - c0: 115
    c1: 44
    amount: -2
  - c0: 183
    c1: 87
    amount: -3
  - c0: 183
    c1: 86
    amount: -6
  - c0: 183
    c1: 65
    amount: -4
  - c0: 115
    c1: 84
    amount: -8
  - c0: 115
    c1: 85
    amount: -1
  - c0: 115
    c1: 86
    amount: -6
  - c0: 115
    c1: 87
    amount: -4
  - c0: 183
    c1: 84
    amount: -6
  - c0: 183
    c1: 122
    amount: -4
  - c0: 115
    c1: 89
    amount: -7
  - c0: 115
    c1: 88
    amount: -2
  - c0: 183
    c1: 120
    amount: -4
  - c0: 115
    c1: 45
    amount: -4
  - c0: 115
    c1: 92
    amount: -2
  - c0: 183
    c1: 102
    amount: -1
  - c0: 115
    c1: 41
    amount: -3
  - c0: 115
    c1: 33
    amount: -2
  - c0: 115
    c1: 63
    amount: -1
  - c0: 115
    c1: 42
    amount: -3
  - c0: 115
    c1: 93
    amount: -2
  - c0: 115
    c1: 183
    amount: -2
  - c0: 115
    c1: 125
    amount: -2
  - c0: 91
    c1: 48
    amount: -2
  - c0: 91
    c1: 56
    amount: -1
  - c0: 106
    c1: 46
    amount: -2
  - c0: 106
    c1: 44
    amount: -3
  - c0: 91
    c1: 54
    amount: -2
  - c0: 91
    c1: 52
    amount: -1
  - c0: 91
    c1: 55
    amount: 2
  - c0: 91
    c1: 49
    amount: -1
  - c0: 106
    c1: 84
    amount: -3
  - c0: 91
    c1: 89
    amount: 3
  - c0: 106
    c1: 83
    amount: -2
  - c0: 106
    c1: 90
    amount: -2
  - c0: 106
    c1: 89
    amount: -1
  - c0: 91
    c1: 87
    amount: 2
  - c0: 91
    c1: 86
    amount: 4
  - c0: 106
    c1: 42
    amount: -1
  - c0: 106
    c1: 183
    amount: -1
  - c0: 91
    c1: 65
    amount: -1
  - c0: 91
    c1: 81
    amount: -2
  - c0: 108
    c1: 110
    amount: -2
  - c0: 108
    c1: 111
    amount: -1
  - c0: 108
    c1: 102
    amount: -1
  - c0: 108
    c1: 116
    amount: -2
  - c0: 108
    c1: 79
    amount: -1
  - c0: 108
    c1: 81
    amount: -1
  - c0: 108
    c1: 84
    amount: -2
  - c0: 108
    c1: 85
    amount: -2
  - c0: 108
    c1: 86
    amount: -1
  - c0: 108
    c1: 87
    amount: -1
  - c0: 108
    c1: 89
    amount: -2
  - c0: 108
    c1: 45
    amount: -5
  - c0: 91
    c1: 74
    amount: 6
  - c0: 108
    c1: 41
    amount: -2
  - c0: 108
    c1: 39
    amount: -2
  - c0: 108
    c1: 42
    amount: -5
  - c0: 108
    c1: 183
    amount: -4
  - c0: 91
    c1: 79
    amount: -2
  - c0: 91
    c1: 122
    amount: -2
  - c0: 91
    c1: 120
    amount: -2
  - c0: 91
    c1: 116
    amount: -1
  - c0: 91
    c1: 102
    amount: 2
  - c0: 102
    c1: 110
    amount: -1
  - c0: 102
    c1: 111
    amount: -3
  - c0: 102
    c1: 117
    amount: -3
  - c0: 102
    c1: 115
    amount: -2
  - c0: 102
    c1: 122
    amount: -2
  - c0: 102
    c1: 46
    amount: -8
  - c0: 102
    c1: 44
    amount: -8
  - c0: 102
    c1: 84
    amount: 3
  - c0: 102
    c1: 65
    amount: -2
  - c0: 102
    c1: 86
    amount: 5
  - c0: 102
    c1: 87
    amount: 4
  - c0: 102
    c1: 83
    amount: -1
  - c0: 102
    c1: 90
    amount: 1
  - c0: 102
    c1: 89
    amount: 4
  - c0: 102
    c1: 88
    amount: 3
  - c0: 91
    c1: 106
    amount: 6
  - c0: 102
    c1: 45
    amount: -4
  - c0: 102
    c1: 47
    amount: -2
  - c0: 102
    c1: 92
    amount: 5
  - c0: 91
    c1: 115
    amount: -2
  - c0: 102
    c1: 38
    amount: -2
  - c0: 102
    c1: 63
    amount: 2
  - c0: 102
    c1: 39
    amount: 2
  - c0: 102
    c1: 93
    amount: 3
  - c0: 102
    c1: 183
    amount: -6
  - c0: 102
    c1: 125
    amount: 5
  - c0: 91
    c1: 117
    amount: -3
  - c0: 42
    c1: 88
    amount: -4
  - c0: 42
    c1: 89
    amount: -1
  - c0: 42
    c1: 90
    amount: -1
  - c0: 42
    c1: 65
    amount: -6
  - c0: 42
    c1: 116
    amount: 1
  - c0: 99
    c1: 111
    amount: -1
  - c0: 99
    c1: 44
    amount: -2
  - c0: 99
    c1: 79
    amount: -1
  - c0: 99
    c1: 81
    amount: -1
  - c0: 99
    c1: 84
    amount: -7
  - c0: 99
    c1: 86
    amount: -3
  - c0: 99
    c1: 87
    amount: -2
  - c0: 99
    c1: 83
    amount: -1
  - c0: 99
    c1: 89
    amount: -5
  - c0: 42
    c1: 115
    amount: -1
  - c0: 99
    c1: 45
    amount: -2
  - c0: 42
    c1: 111
    amount: -2
  - c0: 99
    c1: 38
    amount: -1
  - c0: 99
    c1: 41
    amount: -2
  - c0: 99
    c1: 63
    amount: -1
  - c0: 99
    c1: 42
    amount: -1
  - c0: 99
    c1: 183
    amount: -2
  - c0: 39
    c1: 38
    amount: -2
  - c0: 39
    c1: 64
    amount: -2
  - c0: 39
    c1: 47
    amount: -3
  - c0: 39
    c1: 65
    amount: -4
  - c0: 114
    c1: 111
    amount: -3
  - c0: 114
    c1: 116
    amount: 1
  - c0: 114
    c1: 46
    amount: -12
  - c0: 114
    c1: 44
    amount: -12
  - c0: 39
    c1: 44
    amount: -10
  - c0: 39
    c1: 46
    amount: -10
  - c0: 114
    c1: 84
    amount: -9
  - c0: 114
    c1: 65
    amount: -4
  - c0: 114
    c1: 86
    amount: -3
  - c0: 114
    c1: 87
    amount: -3
  - c0: 114
    c1: 83
    amount: -2
  - c0: 114
    c1: 90
    amount: -5
  - c0: 114
    c1: 89
    amount: -5
  - c0: 114
    c1: 88
    amount: -5
  - c0: 114
    c1: 77
    amount: -1
  - c0: 114
    c1: 45
    amount: -1
  - c0: 114
    c1: 47
    amount: -6
  - c0: 39
    c1: 115
    amount: -1
  - c0: 114
    c1: 38
    amount: -3
  - c0: 114
    c1: 41
    amount: -4
  - c0: 114
    c1: 33
    amount: -2
  - c0: 114
    c1: 63
    amount: -4
  - c0: 114
    c1: 42
    amount: 1
  - c0: 114
    c1: 93
    amount: -2
  - c0: 114
    c1: 183
    amount: -3
  - c0: 114
    c1: 125
    amount: -2
  - c0: 39
    c1: 111
    amount: -2
  - c0: 63
    c1: 65
    amount: -6
  - c0: 33
    c1: 88
    amount: -4
  - c0: 33
    c1: 89
    amount: -3
  - c0: 33
    c1: 87
    amount: -2
  - c0: 116
    c1: 111
    amount: -1
  - c0: 116
    c1: 120
    amount: 1
  - c0: 33
    c1: 86
    amount: -3
  - c0: 116
    c1: 84
    amount: -6
  - c0: 61
    c1: 55
    amount: -2
  - c0: 43
    c1: 51
    amount: -2
  - c0: 116
    c1: 86
    amount: -3
  - c0: 116
    c1: 87
    amount: -2
  - c0: 116
    c1: 83
    amount: -1
  - c0: 116
    c1: 89
    amount: -5
  - c0: 116
    c1: 45
    amount: -3
  - c0: 43
    c1: 50
    amount: -3
  - c0: 116
    c1: 33
    amount: -3
  - c0: 116
    c1: 63
    amount: -1
  - c0: 116
    c1: 42
    amount: -2
  - c0: 116
    c1: 93
    amount: -1
  - c0: 116
    c1: 183
    amount: -4
  - c0: 43
    c1: 55
    amount: -4
  - c0: 43
    c1: 49
    amount: -1
  - c0: 41
    c1: 125
    amount: -1
  - c0: 40
    c1: 48
    amount: -2
  - c0: 118
    c1: 46
    amount: -5
  - c0: 118
    c1: 44
    amount: -6
  - c0: 118
    c1: 73
    amount: -1
  - c0: 118
    c1: 74
    amount: -1
  - c0: 118
    c1: 84
    amount: -7
  - c0: 40
    c1: 57
    amount: -1
  - c0: 118
    c1: 65
    amount: -1
  - c0: 118
    c1: 86
    amount: -4
  - c0: 118
    c1: 87
    amount: -2
  - c0: 118
    c1: 83
    amount: -3
  - c0: 118
    c1: 90
    amount: -3
  - c0: 118
    c1: 89
    amount: -3
  - c0: 118
    c1: 88
    amount: -3
  - c0: 118
    c1: 77
    amount: -1
  - c0: 40
    c1: 56
    amount: -2
  - c0: 118
    c1: 45
    amount: -2
  - c0: 118
    c1: 47
    amount: -2
  - c0: 118
    c1: 92
    amount: -1
  - c0: 40
    c1: 54
    amount: -3
  - c0: 118
    c1: 41
    amount: -5
  - c0: 118
    c1: 33
    amount: -2
  - c0: 118
    c1: 63
    amount: -2
  - c0: 118
    c1: 42
    amount: -1
  - c0: 118
    c1: 93
    amount: -3
  - c0: 118
    c1: 125
    amount: -2
  - c0: 40
    c1: 52
    amount: -3
  - c0: 40
    c1: 55
    amount: 1
  - c0: 119
    c1: 46
    amount: -5
  - c0: 119
    c1: 44
    amount: -6
  - c0: 119
    c1: 73
    amount: -1
  - c0: 119
    c1: 74
    amount: -1
  - c0: 119
    c1: 84
    amount: -7
  - c0: 40
    c1: 49
    amount: -1
  - c0: 119
    c1: 65
    amount: -1
  - c0: 119
    c1: 86
    amount: -4
  - c0: 119
    c1: 87
    amount: -2
  - c0: 119
    c1: 83
    amount: -3
  - c0: 119
    c1: 90
    amount: -3
  - c0: 119
    c1: 89
    amount: -3
  - c0: 119
    c1: 88
    amount: -3
  - c0: 119
    c1: 77
    amount: -1
  - c0: 40
    c1: 84
    amount: 1
  - c0: 119
    c1: 45
    amount: -2
  - c0: 119
    c1: 47
    amount: -2
  - c0: 119
    c1: 92
    amount: -1
  - c0: 40
    c1: 81
    amount: -2
  - c0: 119
    c1: 41
    amount: -5
  - c0: 119
    c1: 33
    amount: -2
  - c0: 119
    c1: 63
    amount: -2
  - c0: 119
    c1: 42
    amount: -1
  - c0: 119
    c1: 93
    amount: -3
  - c0: 119
    c1: 125
    amount: -2
  - c0: 40
    c1: 74
    amount: 5
  - c0: 40
    c1: 122
    amount: -1
  - c0: 40
    c1: 116
    amount: -2
  - c0: 121
    c1: 106
    amount: 1
  - c0: 40
    c1: 102
    amount: 1
  - c0: 121
    c1: 73
    amount: -1
  - c0: 121
    c1: 74
    amount: 2
  - c0: 40
    c1: 106
    amount: 6
  - c0: 121
    c1: 84
    amount: -8
  - c0: 121
    c1: 85
    amount: -1
  - c0: 121
    c1: 86
    amount: -5
  - c0: 121
    c1: 87
    amount: -3
  - c0: 40
    c1: 117
    amount: -3
  - c0: 121
    c1: 89
    amount: -5
  - c0: 38
    c1: 39
    amount: -4
  - c0: 121
    c1: 47
    amount: 4
  - c0: 121
    c1: 92
    amount: -2
  - c0: 38
    c1: 89
    amount: -5
  - c0: 121
    c1: 41
    amount: -2
  - c0: 121
    c1: 63
    amount: -1
  - c0: 121
    c1: 42
    amount: -3
  - c0: 121
    c1: 93
    amount: -2
  - c0: 121
    c1: 183
    amount: -1
  - c0: 121
    c1: 125
    amount: -1
  - c0: 38
    c1: 87
    amount: -3
  - c0: 38
    c1: 86
    amount: -5
  - c0: 120
    c1: 111
    amount: -2
  - c0: 120
    c1: 122
    amount: 1
  - c0: 120
    c1: 46
    amount: -1
  - c0: 120
    c1: 44
    amount: -2
  - c0: 120
    c1: 79
    amount: -1
  - c0: 120
    c1: 81
    amount: -1
  - c0: 120
    c1: 84
    amount: -9
  - c0: 120
    c1: 85
    amount: -1
  - c0: 120
    c1: 86
    amount: -5
  - c0: 120
    c1: 87
    amount: -2
  - c0: 120
    c1: 83
    amount: -2
  - c0: 120
    c1: 90
    amount: -1
  - c0: 120
    c1: 89
    amount: -7
  - c0: 120
    c1: 88
    amount: 1
  - c0: 120
    c1: 45
    amount: -6
  - c0: 38
    c1: 84
    amount: -5
  - c0: 120
    c1: 38
    amount: -1
  - c0: 120
    c1: 41
    amount: -2
  - c0: 120
    c1: 63
    amount: -1
  - c0: 120
    c1: 93
    amount: -2
  - c0: 120
    c1: 183
    amount: -4
  - c0: 120
    c1: 125
    amount: -1
  - c0: 38
    c1: 116
    amount: -2
  - c0: 38
    c1: 102
    amount: -2
  - c0: 64
    c1: 39
    amount: -1
  - c0: 64
    c1: 88
    amount: -2
  - c0: 122
    c1: 111
    amount: -1
  - c0: 122
    c1: 117
    amount: -2
  - c0: 122
    c1: 120
    amount: 1
  - c0: 122
    c1: 44
    amount: -2
  - c0: 64
    c1: 89
    amount: -8
  - c0: 64
    c1: 90
    amount: -2
  - c0: 64
    c1: 87
    amount: -3
  - c0: 64
    c1: 86
    amount: -7
  - c0: 122
    c1: 84
    amount: -7
  - c0: 122
    c1: 85
    amount: -1
  - c0: 122
    c1: 86
    amount: -3
  - c0: 122
    c1: 87
    amount: -2
  - c0: 122
    c1: 83
    amount: -1
  - c0: 122
    c1: 90
    amount: -1
  - c0: 122
    c1: 89
    amount: -4
  - c0: 64
    c1: 65
    amount: -1
  - c0: 122
    c1: 45
    amount: -6
  - c0: 122
    c1: 92
    amount: -1
  - c0: 64
    c1: 84
    amount: -7
  - c0: 122
    c1: 38
    amount: -1
  - c0: 122
    c1: 41
    amount: -3
  - c0: 122
    c1: 63
    amount: -1
  - c0: 122
    c1: 93
    amount: -2
  - c0: 122
    c1: 183
    amount: -4
  - c0: 122
    c1: 125
    amount: -2
  - c0: 92
    c1: 39
    amount: -3
  - c0: 92
    c1: 49
    amount: -3
  - c0: 92
    c1: 89
    amount: -4
  - c0: 92
    c1: 87
    amount: -3
  - c0: 46
    c1: 110
    amount: -2
  - c0: 46
    c1: 111
    amount: -2
  - c0: 46
    c1: 117
    amount: -2
  - c0: 46
    c1: 105
    amount: -3
  - c0: 46
    c1: 108
    amount: -3
  - c0: 46
    c1: 102
    amount: -5
  - c0: 46
    c1: 116
    amount: -6
  - c0: 46
    c1: 120
    amount: -1
  - c0: 46
    c1: 81
    amount: -1
  - c0: 46
    c1: 84
    amount: -12
  - c0: 46
    c1: 85
    amount: -1
  - c0: 46
    c1: 86
    amount: -13
  - c0: 46
    c1: 87
    amount: -10
  - c0: 46
    c1: 89
    amount: -15
  - c0: 46
    c1: 49
    amount: -3
  - c0: 46
    c1: 55
    amount: -4
  - c0: 46
    c1: 34
    amount: -11
  - c0: 46
    c1: 39
    amount: -10
  - c0: 92
    c1: 86
    amount: -4
  - c0: 92
    c1: 85
    amount: -1
  - c0: 44
    c1: 111
    amount: -2
  - c0: 44
    c1: 117
    amount: -2
  - c0: 44
    c1: 105
    amount: -1
  - c0: 44
    c1: 108
    amount: -3
  - c0: 44
    c1: 102
    amount: -2
  - c0: 44
    c1: 116
    amount: -6
  - c0: 44
    c1: 79
    amount: -4
  - c0: 44
    c1: 81
    amount: -4
  - c0: 44
    c1: 84
    amount: -10
  - c0: 44
    c1: 85
    amount: -2
  - c0: 44
    c1: 86
    amount: -16
  - c0: 44
    c1: 87
    amount: -10
  - c0: 44
    c1: 83
    amount: -1
  - c0: 44
    c1: 89
    amount: -17
  - c0: 44
    c1: 49
    amount: -3
  - c0: 44
    c1: 55
    amount: -4
  - c0: 44
    c1: 39
    amount: -10
  - c0: 92
    c1: 84
    amount: -4
  - c0: 92
    c1: 81
    amount: -1
  - c0: 58
    c1: 84
    amount: -7
  - c0: 58
    c1: 86
    amount: -6
  - c0: 58
    c1: 87
    amount: -4
  - c0: 58
    c1: 89
    amount: -8
  - c0: 58
    c1: 55
    amount: -4
  - c0: 92
    c1: 74
    amount: 4
  - c0: 71
    c1: 102
    amount: -1
  - c0: 71
    c1: 116
    amount: -1
  - c0: 71
    c1: 84
    amount: -1
  - c0: 92
    c1: 79
    amount: -1
  - c0: 71
    c1: 49
    amount: -3
  - c0: 92
    c1: 120
    amount: 4
  - c0: 71
    c1: 39
    amount: -1
  - c0: 71
    c1: 125
    amount: 1
  - c0: 92
    c1: 116
    amount: -1
  - c0: 92
    c1: 102
    amount: 3
  - c0: 92
    c1: 106
    amount: 8
  - c0: 79
    c1: 120
    amount: -1
  - c0: 47
    c1: 48
    amount: -1
  - c0: 79
    c1: 46
    amount: -1
  - c0: 79
    c1: 44
    amount: -8
  - c0: 79
    c1: 84
    amount: -3
  - c0: 79
    c1: 65
    amount: -2
  - c0: 79
    c1: 86
    amount: -3
  - c0: 79
    c1: 87
    amount: -1
  - c0: 79
    c1: 90
    amount: -2
  - c0: 79
    c1: 89
    amount: -5
  - c0: 79
    c1: 88
    amount: -5
  - c0: 79
    c1: 55
    amount: -1
  - c0: 79
    c1: 50
    amount: -1
  - c0: 47
    c1: 56
    amount: -2
  - c0: 79
    c1: 47
    amount: -1
  - c0: 79
    c1: 63
    amount: -1
  - c0: 79
    c1: 93
    amount: -1
  - c0: 79
    c1: 125
    amount: -1
  - c0: 47
    c1: 54
    amount: -2
  - c0: 47
    c1: 52
    amount: -5
  - c0: 67
    c1: 111
    amount: -5
  - c0: 67
    c1: 117
    amount: -1
  - c0: 47
    c1: 55
    amount: 2
  - c0: 67
    c1: 79
    amount: -1
  - c0: 67
    c1: 81
    amount: -1
  - c0: 67
    c1: 84
    amount: 2
  - c0: 47
    c1: 65
    amount: -4
  - c0: 67
    c1: 49
    amount: -1
  - c0: 67
    c1: 52
    amount: -4
  - c0: 67
    c1: 54
    amount: -1
  - c0: 67
    c1: 45
    amount: -8
  - c0: 67
    c1: 64
    amount: -1
  - c0: 47
    c1: 81
    amount: -1
  - c0: 67
    c1: 33
    amount: -3
  - c0: 67
    c1: 42
    amount: -1
  - c0: 67
    c1: 183
    amount: -4
  - c0: 67
    c1: 125
    amount: 1
  - c0: 47
    c1: 79
    amount: -1
  - c0: 47
    c1: 122
    amount: -4
  - c0: 47
    c1: 120
    amount: -5
  - c0: 47
    c1: 116
    amount: -2
  - c0: 47
    c1: 115
    amount: -6
  - c0: 47
    c1: 117
    amount: -4
  - c0: 47
    c1: 111
    amount: -5
  - c0: 73
    c1: 117
    amount: -1
  - c0: 47
    c1: 110
    amount: -3
  - c0: 45
    c1: 51
    amount: -1
  - c0: 45
    c1: 50
    amount: -1
  - c0: 45
    c1: 55
    amount: -10
  - c0: 45
    c1: 49
    amount: -1
  - c0: 45
    c1: 88
    amount: -8
  - c0: 45
    c1: 89
    amount: -8
  - c0: 45
    c1: 90
    amount: -6
  - c0: 45
    c1: 83
    amount: -5
  - c0: 45
    c1: 87
    amount: -3
  - c0: 45
    c1: 86
    amount: -5
  - c0: 69
    c1: 111
    amount: -1
  - c0: 69
    c1: 117
    amount: -1
  - c0: 45
    c1: 65
    amount: -5
  - c0: 45
    c1: 84
    amount: -10
  - c0: 69
    c1: 79
    amount: -1
  - c0: 69
    c1: 81
    amount: -1
  - c0: 69
    c1: 84
    amount: 1
  - c0: 69
    c1: 49
    amount: -2
  - c0: 69
    c1: 52
    amount: -3
  - c0: 69
    c1: 45
    amount: -4
  - c0: 45
    c1: 122
    amount: -6
  - c0: 45
    c1: 120
    amount: -6
  - c0: 45
    c1: 102
    amount: -1
  - c0: 70
    c1: 110
    amount: -4
  - c0: 70
    c1: 111
    amount: -6
  - c0: 70
    c1: 117
    amount: -6
  - c0: 70
    c1: 115
    amount: -6
  - c0: 70
    c1: 106
    amount: -4
  - c0: 70
    c1: 102
    amount: -4
  - c0: 70
    c1: 116
    amount: -4
  - c0: 70
    c1: 120
    amount: -6
  - c0: 70
    c1: 122
    amount: -6
  - c0: 70
    c1: 46
    amount: -15
  - c0: 70
    c1: 44
    amount: -16
  - c0: 70
    c1: 58
    amount: -4
  - c0: 70
    c1: 59
    amount: -1
  - c0: 70
    c1: 79
    amount: -4
  - c0: 70
    c1: 81
    amount: -4
  - c0: 70
    c1: 84
    amount: 2
  - c0: 70
    c1: 65
    amount: -9
  - c0: 70
    c1: 86
    amount: 1
  - c0: 70
    c1: 87
    amount: 1
  - c0: 70
    c1: 83
    amount: -1
  - c0: 70
    c1: 89
    amount: 1
  - c0: 48
    c1: 125
    amount: -2
  - c0: 70
    c1: 49
    amount: -1
  - c0: 48
    c1: 93
    amount: -1
  - c0: 70
    c1: 52
    amount: -2
  - c0: 70
    c1: 54
    amount: -1
  - c0: 70
    c1: 56
    amount: -1
  - c0: 70
    c1: 48
    amount: -1
  - c0: 48
    c1: 41
    amount: -2
  - c0: 70
    c1: 47
    amount: -4
  - c0: 70
    c1: 64
    amount: -4
  - c0: 70
    c1: 38
    amount: -3
  - c0: 70
    c1: 41
    amount: 1
  - c0: 70
    c1: 33
    amount: -2
  - c0: 70
    c1: 93
    amount: 1
  - c0: 70
    c1: 125
    amount: 1
  - c0: 48
    c1: 92
    amount: -1
  - c0: 48
    c1: 47
    amount: -1
  - c0: 48
    c1: 55
    amount: -5
  - c0: 48
    c1: 88
    amount: -1
  - c0: 48
    c1: 89
    amount: -2
  - c0: 48
    c1: 90
    amount: -1
  - c0: 48
    c1: 86
    amount: -1
  - c0: 48
    c1: 84
    amount: -3
  - c0: 76
    c1: 111
    amount: -2
  - c0: 76
    c1: 115
    amount: 1
  - c0: 76
    c1: 102
    amount: -4
  - c0: 76
    c1: 116
    amount: -6
  - c0: 76
    c1: 120
    amount: 2
  - c0: 76
    c1: 122
    amount: 1
  - c0: 76
    c1: 79
    amount: -5
  - c0: 76
    c1: 81
    amount: -5
  - c0: 76
    c1: 84
    amount: -10
  - c0: 76
    c1: 85
    amount: -1
  - c0: 76
    c1: 65
    amount: 3
  - c0: 76
    c1: 86
    amount: -10
  - c0: 76
    c1: 87
    amount: -10
  - c0: 76
    c1: 83
    amount: 1
  - c0: 76
    c1: 89
    amount: -11
  - c0: 76
    c1: 88
    amount: 2
  - c0: 76
    c1: 49
    amount: -4
  - c0: 76
    c1: 55
    amount: -1
  - c0: 76
    c1: 52
    amount: -6
  - c0: 76
    c1: 54
    amount: -1
  - c0: 76
    c1: 57
    amount: -1
  - c0: 76
    c1: 48
    amount: -1
  - c0: 76
    c1: 45
    amount: -12
  - c0: 57
    c1: 125
    amount: -2
  - c0: 76
    c1: 92
    amount: -5
  - c0: 57
    c1: 93
    amount: -1
  - c0: 57
    c1: 41
    amount: -2
  - c0: 76
    c1: 41
    amount: -1
  - c0: 76
    c1: 33
    amount: -2
  - c0: 76
    c1: 39
    amount: -7
  - c0: 76
    c1: 42
    amount: -10
  - c0: 76
    c1: 93
    amount: -2
  - c0: 76
    c1: 183
    amount: -8
  - c0: 76
    c1: 125
    amount: -2
  - c0: 57
    c1: 92
    amount: -1
  - c0: 57
    c1: 47
    amount: -2
  - c0: 57
    c1: 55
    amount: -1
  - c0: 57
    c1: 88
    amount: -1
  - c0: 57
    c1: 89
    amount: -2
  - c0: 57
    c1: 90
    amount: -1
  - c0: 75
    c1: 110
    amount: -3
  - c0: 75
    c1: 111
    amount: -3
  - c0: 75
    c1: 117
    amount: -3
  - c0: 57
    c1: 86
    amount: -1
  - c0: 75
    c1: 106
    amount: -1
  - c0: 75
    c1: 102
    amount: -3
  - c0: 75
    c1: 116
    amount: -4
  - c0: 75
    c1: 120
    amount: 1
  - c0: 75
    c1: 122
    amount: 1
  - c0: 75
    c1: 58
    amount: -4
  - c0: 75
    c1: 79
    amount: -5
  - c0: 75
    c1: 74
    amount: -1
  - c0: 75
    c1: 81
    amount: -5
  - c0: 75
    c1: 84
    amount: -2
  - c0: 75
    c1: 65
    amount: 2
  - c0: 75
    c1: 86
    amount: -2
  - c0: 75
    c1: 87
    amount: -3
  - c0: 75
    c1: 83
    amount: -2
  - c0: 75
    c1: 89
    amount: -2
  - c0: 75
    c1: 88
    amount: 2
  - c0: 57
    c1: 65
    amount: -1
  - c0: 75
    c1: 52
    amount: -2
  - c0: 75
    c1: 54
    amount: -1
  - c0: 75
    c1: 45
    amount: -8
  - c0: 57
    c1: 84
    amount: -3
  - c0: 56
    c1: 125
    amount: -1
  - c0: 75
    c1: 33
    amount: -5
  - c0: 75
    c1: 42
    amount: -6
  - c0: 75
    c1: 183
    amount: -4
  - c0: 56
    c1: 93
    amount: -1
  - c0: 56
    c1: 41
    amount: -2
  - c0: 56
    c1: 92
    amount: -1
  - c0: 56
    c1: 89
    amount: -1
  - c0: 56
    c1: 86
    amount: -1
  - c0: 56
    c1: 84
    amount: -2
  - c0: 54
    c1: 39
    amount: -1
  - c0: 54
    c1: 49
    amount: -1
  - c0: 74
    c1: 117
    amount: -1
  - c0: 54
    c1: 84
    amount: -1
  - c0: 52
    c1: 176
    amount: -2
  - c0: 52
    c1: 125
    amount: -2
  - c0: 52
    c1: 93
    amount: -1
  - c0: 52
    c1: 39
    amount: -1
  - c0: 52
    c1: 41
    amount: -3
  - c0: 74
    c1: 46
    amount: -2
  - c0: 74
    c1: 44
    amount: -3
  - c0: 52
    c1: 92
    amount: -3
  - c0: 74
    c1: 33
    amount: -2
  - c0: 74
    c1: 42
    amount: -1
  - c0: 52
    c1: 55
    amount: -3
  - c0: 52
    c1: 49
    amount: -1
  - c0: 52
    c1: 89
    amount: -3
  - c0: 68
    c1: 120
    amount: -1
  - c0: 52
    c1: 90
    amount: -1
  - c0: 68
    c1: 46
    amount: -2
  - c0: 68
    c1: 44
    amount: -4
  - c0: 68
    c1: 84
    amount: -6
  - c0: 68
    c1: 65
    amount: -4
  - c0: 68
    c1: 86
    amount: -3
  - c0: 68
    c1: 87
    amount: -1
  - c0: 68
    c1: 90
    amount: -2
  - c0: 68
    c1: 89
    amount: -3
  - c0: 68
    c1: 88
    amount: -4
  - c0: 68
    c1: 55
    amount: -1
  - c0: 68
    c1: 50
    amount: -1
  - c0: 68
    c1: 51
    amount: -1
  - c0: 52
    c1: 83
    amount: -1
  - c0: 68
    c1: 47
    amount: -1
  - c0: 68
    c1: 92
    amount: -1
  - c0: 68
    c1: 41
    amount: -1
  - c0: 68
    c1: 33
    amount: -1
  - c0: 68
    c1: 63
    amount: -1
  - c0: 68
    c1: 93
    amount: -2
  - c0: 68
    c1: 125
    amount: -2
  - c0: 52
    c1: 87
    amount: -2
  - c0: 81
    c1: 106
    amount: 5
  - c0: 81
    c1: 102
    amount: 1
  - c0: 81
    c1: 120
    amount: -1
  - c0: 52
    c1: 86
    amount: -3
  - c0: 81
    c1: 74
    amount: 4
  - c0: 81
    c1: 84
    amount: -2
  - c0: 81
    c1: 65
    amount: -2
  - c0: 81
    c1: 86
    amount: -2
  - c0: 81
    c1: 87
    amount: -2
  - c0: 81
    c1: 90
    amount: -1
  - c0: 81
    c1: 89
    amount: -5
  - c0: 81
    c1: 88
    amount: -2
  - c0: 52
    c1: 84
    amount: -4
  - c0: 81
    c1: 55
    amount: -1
  - c0: 51
    c1: 125
    amount: -1
  - c0: 81
    c1: 33
    amount: -3
  - c0: 81
    c1: 63
    amount: -1
  - c0: 81
    c1: 93
    amount: 1
  - c0: 51
    c1: 93
    amount: -1
  - c0: 84
    c1: 110
    amount: -10
  - c0: 84
    c1: 111
    amount: -8
  - c0: 84
    c1: 117
    amount: -8
  - c0: 84
    c1: 115
    amount: -8
  - c0: 84
    c1: 106
    amount: -3
  - c0: 84
    c1: 102
    amount: -5
  - c0: 84
    c1: 116
    amount: -6
  - c0: 84
    c1: 120
    amount: -9
  - c0: 84
    c1: 122
    amount: -7
  - c0: 84
    c1: 46
    amount: -12
  - c0: 84
    c1: 44
    amount: -11
  - c0: 84
    c1: 58
    amount: -7
  - c0: 84
    c1: 59
    amount: -4
  - c0: 84
    c1: 79
    amount: -3
  - c0: 84
    c1: 81
    amount: -3
  - c0: 84
    c1: 65
    amount: -6
  - c0: 84
    c1: 86
    amount: 2
  - c0: 84
    c1: 87
    amount: 1
  - c0: 84
    c1: 83
    amount: -3
  - c0: 84
    c1: 90
    amount: -2
  - c0: 84
    c1: 89
    amount: 1
  - c0: 84
    c1: 77
    amount: -1
  - c0: 51
    c1: 41
    amount: -2
  - c0: 84
    c1: 49
    amount: -3
  - c0: 51
    c1: 92
    amount: -1
  - c0: 84
    c1: 53
    amount: -1
  - c0: 84
    c1: 52
    amount: -4
  - c0: 84
    c1: 54
    amount: -3
  - c0: 84
    c1: 56
    amount: -2
  - c0: 84
    c1: 57
    amount: -1
  - c0: 84
    c1: 48
    amount: -3
  - c0: 84
    c1: 45
    amount: -10
  - c0: 51
    c1: 89
    amount: -1
  - c0: 84
    c1: 47
    amount: -4
  - c0: 84
    c1: 64
    amount: -7
  - c0: 51
    c1: 86
    amount: -1
  - c0: 84
    c1: 38
    amount: -5
  - c0: 84
    c1: 41
    amount: 1
  - c0: 84
    c1: 93
    amount: 2
  - c0: 84
    c1: 183
    amount: -6
  - c0: 84
    c1: 125
    amount: 1
  - c0: 51
    c1: 84
    amount: -2
  - c0: 50
    c1: 89
    amount: -1
  - c0: 50
    c1: 84
    amount: -1
  - c0: 55
    c1: 93
    amount: 1
  - c0: 55
    c1: 43
    amount: -1
  - c0: 55
    c1: 47
    amount: -8
  - c0: 66
    c1: 115
    amount: -1
  - c0: 55
    c1: 45
    amount: -6
  - c0: 55
    c1: 54
    amount: -3
  - c0: 66
    c1: 120
    amount: -1
  - c0: 55
    c1: 52
    amount: -4
  - c0: 66
    c1: 44
    amount: -4
  - c0: 66
    c1: 84
    amount: -2
  - c0: 66
    c1: 86
    amount: -2
  - c0: 66
    c1: 87
    amount: -2
  - c0: 66
    c1: 83
    amount: -2
  - c0: 66
    c1: 90
    amount: -1
  - c0: 66
    c1: 89
    amount: -2
  - c0: 66
    c1: 88
    amount: -1
  - c0: 66
    c1: 55
    amount: -1
  - c0: 55
    c1: 53
    amount: -2
  - c0: 66
    c1: 41
    amount: -1
  - c0: 66
    c1: 42
    amount: -3
  - c0: 66
    c1: 93
    amount: -1
  - c0: 66
    c1: 125
    amount: -1
  - c0: 55
    c1: 87
    amount: 1
  - c0: 82
    c1: 110
    amount: -2
  - c0: 82
    c1: 111
    amount: -2
  - c0: 82
    c1: 117
    amount: -2
  - c0: 55
    c1: 86
    amount: 1
  - c0: 55
    c1: 65
    amount: -3
  - c0: 82
    c1: 106
    amount: -1
  - c0: 55
    c1: 58
    amount: -8
  - c0: 82
    c1: 102
    amount: -3
  - c0: 82
    c1: 116
    amount: -2
  - c0: 82
    c1: 120
    amount: 1
  - c0: 82
    c1: 79
    amount: -2
  - c0: 82
    c1: 81
    amount: -2
  - c0: 82
    c1: 84
    amount: -4
  - c0: 55
    c1: 44
    amount: -15
  - c0: 82
    c1: 65
    amount: 2
  - c0: 82
    c1: 86
    amount: -5
  - c0: 82
    c1: 87
    amount: -6
  - c0: 82
    c1: 83
    amount: -2
  - c0: 82
    c1: 89
    amount: -6
  - c0: 82
    c1: 88
    amount: 2
  - c0: 82
    c1: 45
    amount: -5
  - c0: 82
    c1: 92
    amount: -1
  - c0: 55
    c1: 46
    amount: -12
  - c0: 82
    c1: 33
    amount: -3
  - c0: 82
    c1: 42
    amount: -4
  - c0: 82
    c1: 183
    amount: -4
  - c0: 82
    c1: 125
    amount: -1
  - c0: 49
    c1: 125
    amount: -1
  - c0: 77
    c1: 125
    amount: -1
  - c0: 77
    c1: 33
    amount: -1
  - c0: 77
    c1: 84
    amount: -1
  - c0: 80
    c1: 110
    amount: -1
  - c0: 80
    c1: 111
    amount: -5
  - c0: 80
    c1: 117
    amount: -3
  - c0: 80
    c1: 115
    amount: -4
  - c0: 80
    c1: 106
    amount: -4
  - c0: 80
    c1: 120
    amount: -2
  - c0: 80
    c1: 122
    amount: -3
  - c0: 80
    c1: 46
    amount: -19
  - c0: 80
    c1: 44
    amount: -20
  - c0: 80
    c1: 58
    amount: -4
  - c0: 80
    c1: 79
    amount: -2
  - c0: 80
    c1: 81
    amount: -2
  - c0: 80
    c1: 65
    amount: -9
  - c0: 80
    c1: 86
    amount: -2
  - c0: 80
    c1: 87
    amount: -1
  - c0: 80
    c1: 90
    amount: -2
  - c0: 80
    c1: 89
    amount: -4
  - c0: 80
    c1: 88
    amount: -5
  - c0: 88
    c1: 183
    amount: -8
  - c0: 80
    c1: 52
    amount: -1
  - c0: 80
    c1: 45
    amount: -2
  - c0: 88
    c1: 42
    amount: -4
  - c0: 80
    c1: 47
    amount: -4
  - c0: 80
    c1: 64
    amount: -5
  - c0: 80
    c1: 38
    amount: -2
  - c0: 80
    c1: 33
    amount: -3
  - c0: 80
    c1: 63
    amount: -2
  - c0: 80
    c1: 125
    amount: -2
  - c0: 88
    c1: 33
    amount: -4
  - c0: 88
    c1: 64
    amount: -2
  - c0: 88
    c1: 45
    amount: -8
  - c0: 88
    c1: 48
    amount: -1
  - c0: 88
    c1: 54
    amount: -1
  - c0: 88
    c1: 52
    amount: -1
  - c0: 88
    c1: 49
    amount: -1
  - c0: 88
    c1: 88
    amount: 1
  - c0: 85
    c1: 117
    amount: -1
  - c0: 85
    c1: 104
    amount: -1
  - c0: 88
    c1: 83
    amount: -1
  - c0: 85
    c1: 115
    amount: -1
  - c0: 88
    c1: 65
    amount: 1
  - c0: 85
    c1: 108
    amount: -1
  - c0: 88
    c1: 81
    amount: -5
  - c0: 85
    c1: 122
    amount: -1
  - c0: 85
    c1: 46
    amount: -1
  - c0: 85
    c1: 44
    amount: -5
  - c0: 85
    c1: 65
    amount: -2
  - c0: 88
    c1: 79
    amount: -5
  - c0: 88
    c1: 44
    amount: -2
  - c0: 85
    c1: 47
    amount: -1
  - c0: 88
    c1: 120
    amount: 1
  - c0: 88
    c1: 116
    amount: -2
  - c0: 88
    c1: 102
    amount: -3
  - c0: 88
    c1: 117
    amount: -1
  - c0: 65
    c1: 102
    amount: -1
  - c0: 65
    c1: 116
    amount: -1
  - c0: 65
    c1: 79
    amount: -2
  - c0: 65
    c1: 81
    amount: -2
  - c0: 65
    c1: 84
    amount: -6
  - c0: 65
    c1: 85
    amount: -2
  - c0: 65
    c1: 65
    amount: 2
  - c0: 65
    c1: 86
    amount: -7
  - c0: 65
    c1: 87
    amount: -4
  - c0: 65
    c1: 89
    amount: -7
  - c0: 65
    c1: 49
    amount: -3
  - c0: 65
    c1: 55
    amount: -1
  - c0: 88
    c1: 111
    amount: -2
  - c0: 65
    c1: 45
    amount: -5
  - c0: 88
    c1: 110
    amount: -2
  - c0: 65
    c1: 92
    amount: -4
  - c0: 65
    c1: 64
    amount: -1
  - c0: 89
    c1: 125
    amount: 2
  - c0: 65
    c1: 39
    amount: -4
  - c0: 65
    c1: 42
    amount: -6
  - c0: 65
    c1: 93
    amount: -1
  - c0: 65
    c1: 183
    amount: -4
  - c0: 65
    c1: 125
    amount: -1
  - c0: 89
    c1: 183
    amount: -6
  - c0: 89
    c1: 93
    amount: 3
  - c0: 89
    c1: 42
    amount: -1
  - c0: 89
    c1: 33
    amount: -3
  - c0: 86
    c1: 110
    amount: -5
  - c0: 86
    c1: 111
    amount: -5
  - c0: 86
    c1: 117
    amount: -5
  - c0: 86
    c1: 115
    amount: -6
  - c0: 86
    c1: 102
    amount: -2
  - c0: 86
    c1: 116
    amount: -2
  - c0: 86
    c1: 120
    amount: -5
  - c0: 86
    c1: 122
    amount: -3
  - c0: 86
    c1: 46
    amount: -13
  - c0: 86
    c1: 44
    amount: -18
  - c0: 86
    c1: 58
    amount: -6
  - c0: 86
    c1: 59
    amount: -1
  - c0: 86
    c1: 79
    amount: -3
  - c0: 86
    c1: 81
    amount: -3
  - c0: 86
    c1: 84
    amount: 2
  - c0: 86
    c1: 65
    amount: -7
  - c0: 86
    c1: 86
    amount: 2
  - c0: 86
    c1: 87
    amount: 1
  - c0: 86
    c1: 83
    amount: -1
  - c0: 86
    c1: 89
    amount: 1
  - c0: 89
    c1: 38
    amount: -5
  - c0: 86
    c1: 55
    amount: 2
  - c0: 86
    c1: 52
    amount: -2
  - c0: 86
    c1: 54
    amount: -1
  - c0: 86
    c1: 48
    amount: -1
  - c0: 86
    c1: 45
    amount: -5
  - c0: 89
    c1: 64
    amount: -8
  - c0: 86
    c1: 47
    amount: -4
  - c0: 86
    c1: 64
    amount: -7
  - c0: 89
    c1: 47
    amount: -4
  - c0: 86
    c1: 38
    amount: -3
  - c0: 86
    c1: 33
    amount: -3
  - c0: 86
    c1: 93
    amount: 4
  - c0: 86
    c1: 183
    amount: -6
  - c0: 86
    c1: 125
    amount: 2
  - c0: 89
    c1: 45
    amount: -8
  - c0: 89
    c1: 48
    amount: -2
  - c0: 89
    c1: 56
    amount: -1
  - c0: 89
    c1: 54
    amount: -3
  - c0: 89
    c1: 52
    amount: -3
  - c0: 89
    c1: 55
    amount: 2
  - c0: 87
    c1: 110
    amount: -2
  - c0: 87
    c1: 111
    amount: -3
  - c0: 87
    c1: 117
    amount: -1
  - c0: 87
    c1: 115
    amount: -4
  - c0: 87
    c1: 102
    amount: -1
  - c0: 87
    c1: 116
    amount: -1
  - c0: 87
    c1: 120
    amount: -2
  - c0: 87
    c1: 122
    amount: -2
  - c0: 87
    c1: 46
    amount: -10
  - c0: 87
    c1: 44
    amount: -10
  - c0: 87
    c1: 58
    amount: -4
  - c0: 87
    c1: 79
    amount: -1
  - c0: 87
    c1: 81
    amount: -1
  - c0: 87
    c1: 84
    amount: 1
  - c0: 87
    c1: 65
    amount: -4
  - c0: 87
    c1: 86
    amount: 1
  - c0: 87
    c1: 87
    amount: 1
  - c0: 87
    c1: 83
    amount: -1
  - c0: 87
    c1: 89
    amount: 1
  - c0: 89
    c1: 89
    amount: 1
  - c0: 87
    c1: 55
    amount: 2
  - c0: 87
    c1: 52
    amount: -1
  - c0: 87
    c1: 45
    amount: -3
  - c0: 89
    c1: 83
    amount: -3
  - c0: 87
    c1: 47
    amount: -3
  - c0: 87
    c1: 64
    amount: -3
  - c0: 89
    c1: 87
    amount: 1
  - c0: 87
    c1: 38
    amount: -2
  - c0: 87
    c1: 33
    amount: -2
  - c0: 87
    c1: 93
    amount: 2
  - c0: 87
    c1: 183
    amount: -3
  - c0: 87
    c1: 125
    amount: 1
  - c0: 89
    c1: 86
    amount: 1
  - c0: 89
    c1: 65
    amount: -7
  - c0: 89
    c1: 84
    amount: 1
  - c0: 89
    c1: 81
    amount: -5
  - c0: 89
    c1: 79
    amount: -5
  - c0: 89
    c1: 59
    amount: -2
  - c0: 83
    c1: 117
    amount: -1
  - c0: 89
    c1: 58
    amount: -8
  - c0: 83
    c1: 106
    amount: -2
  - c0: 83
    c1: 102
    amount: -2
  - c0: 83
    c1: 116
    amount: -3
  - c0: 83
    c1: 120
    amount: -2
  - c0: 83
    c1: 122
    amount: -1
  - c0: 83
    c1: 44
    amount: -4
  - c0: 83
    c1: 65
    amount: -2
  - c0: 83
    c1: 89
    amount: -3
  - c0: 83
    c1: 88
    amount: -1
  - c0: 83
    c1: 49
    amount: -2
  - c0: 83
    c1: 45
    amount: -2
  - c0: 89
    c1: 44
    amount: -17
  - c0: 83
    c1: 42
    amount: -1
  - c0: 89
    c1: 46
    amount: -15
  - c0: 89
    c1: 122
    amount: -4
  - c0: 90
    c1: 110
    amount: -1
  - c0: 90
    c1: 111
    amount: -2
  - c0: 90
    c1: 117
    amount: -2
  - c0: 89
    c1: 120
    amount: -7
  - c0: 90
    c1: 106
    amount: -2
  - c0: 90
    c1: 102
    amount: -3
  - c0: 90
    c1: 116
    amount: -3
  - c0: 90
    c1: 120
    amount: -1
  - c0: 90
    c1: 122
    amount: -1
  - c0: 90
    c1: 79
    amount: -2
  - c0: 90
    c1: 81
    amount: -2
  - c0: 90
    c1: 84
    amount: -2
  - c0: 90
    c1: 86
    amount: -1
  - c0: 90
    c1: 87
    amount: -1
  - c0: 90
    c1: 89
    amount: -1
  - c0: 90
    c1: 88
    amount: -1
  - c0: 89
    c1: 116
    amount: -4
  - c0: 90
    c1: 52
    amount: -5
  - c0: 90
    c1: 54
    amount: -1
  - c0: 90
    c1: 48
    amount: -1
  - c0: 90
    c1: 45
    amount: -10
  - c0: 90
    c1: 64
    amount: -2
  - c0: 89
    c1: 102
    amount: -5
  - c0: 90
    c1: 42
    amount: -1
  - c0: 90
    c1: 183
    amount: -3
  - c0: 89
    c1: 106
    amount: -1
  - c0: 89
    c1: 115
    amount: -7
  - c0: 89
    c1: 117
    amount: -6
  - c0: 89
    c1: 111
    amount: -7
  - c0: 89
    c1: 110
    amount: -7
  largestWidth: 100
  material: {fileID: 2100000, guid: 903e7664965fd0e4d9be946dc6c47d9c, type: 2}
  gradientTexture: {fileID: 0}
  textureGradients: 0
  gradientCount: 1
  texelSize: {x: 1, y: 1}
  invOrthoSize: 2
  halfTargetHeight: .5
--- !u!1001 &100100000
Prefab:
  m_ObjectHideFlags: 1
  serializedVersion: 2
  m_Modification:
    m_TransformParent: {fileID: 0}
    m_Modifications: []
    m_RemovedComponents: []
  m_ParentPrefab: {fileID: 0}
  m_RootGameObject: {fileID: 100000}
  m_IsPrefabParent: 1
  m_IsExploded: 1
