%YAML 1.1
%TAG !u! tag:unity3d.com,2011:
--- !u!1 &100000
GameObject:
  m_ObjectHideFlags: 0
  m_PrefabParentObject: {fileID: 0}
  m_PrefabInternal: {fileID: 100100000}
  serializedVersion: 5
  m_Component:
  - component: {fileID: 400000}
  - component: {fileID: 11400000}
  m_Layer: 0
  m_Name: GameSpriteCollection2
  m_TagString: Untagged
  m_Icon: {fileID: 0}
  m_NavMeshLayer: 0
  m_StaticEditorFlags: 0
  m_IsActive: 1
--- !u!4 &400000
Transform:
  m_ObjectHideFlags: 1
  m_PrefabParentObject: {fileID: 0}
  m_PrefabInternal: {fileID: 100100000}
  m_GameObject: {fileID: 100000}
  m_LocalRotation: {x: 0, y: 0, z: 0, w: 1}
  m_LocalPosition: {x: 0, y: 0, z: 0}
  m_LocalScale: {x: 1, y: 1, z: 1}
  m_Children: []
  m_Father: {fileID: 0}
  m_RootOrder: 0
  m_LocalEulerAnglesHint: {x: 0, y: 0, z: 0}
--- !u!114 &11400000
MonoBehaviour:
  m_ObjectHideFlags: 1
  m_PrefabParentObject: {fileID: 0}
  m_PrefabInternal: {fileID: 100100000}
  m_GameObject: {fileID: 100000}
  m_Enabled: 1
  m_EditorHideFlags: 0
  m_Script: {fileID: 11500000, guid: a135328693c392f4b8676a5f9e8d6609, type: 3}
  m_Name: 
  m_EditorClassIdentifier: 
  version: 3
  materialIdsValid: 1
  needMaterialInstance: 0
  spriteDefinitions:
  - name: gamebg
    boundsData:
    - {x: 0, y: 0, z: 0}
    - {x: 1080, y: 1920, z: 0}
    untrimmedBoundsData:
    - {x: 0, y: 0, z: 0}
    - {x: 1080, y: 1920, z: 0}
    texelSize: {x: 1, y: 1}
    positions:
    - {x: -540, y: -960, z: 0}
    - {x: 540, y: -960, z: 0}
    - {x: -540, y: 960, z: 0}
    - {x: 540, y: 960, z: 0}
    normals: []
    tangents: []
    uvs:
    - {x: 0.0009770507, y: 0.0009770507}
    - {x: 0.52831984, y: 0.0009770507}
    - {x: 0.0009770507, y: 0.9384761}
    - {x: 0.52831984, y: 0.9384761}
    indices: 000000000300000001000000020000000300000000000000
    material: {fileID: 2100000, guid: adbc1f323a9b2424b8c4440a8b23af8c, type: 2}
    materialId: 0
    sourceTextureGUID: f064aefd3903c0e42b4354c9cfadddc5
    extractRegion: 0
    regionX: 0
    regionY: 0
    regionW: 0
    regionH: 0
    flipped: 0
    complexGeometry: 0
    physicsEngine: 0
    colliderType: 0
    customColliders: []
    colliderVertices: []
    colliderIndicesFwd: 
    colliderIndicesBack: 
    colliderConvex: 0
    colliderSmoothSphereCollisions: 0
    polygonCollider2D: []
    edgeCollider2D: []
    attachPoints: []
  - name: menubg
    boundsData:
    - {x: 0, y: 0, z: 0}
    - {x: 1080, y: 1920, z: 0}
    untrimmedBoundsData:
    - {x: 0, y: 0, z: 0}
    - {x: 1080, y: 1920, z: 0}
    texelSize: {x: 1, y: 1}
    positions:
    - {x: -540, y: -960, z: 0}
    - {x: 540, y: -960, z: 0}
    - {x: -540, y: 960, z: 0}
    - {x: 540, y: 960, z: 0}
    normals: []
    tangents: []
    uvs:
    - {x: 0.0009770507, y: 0.0009770507}
    - {x: 0.52831984, y: 0.0009770507}
    - {x: 0.0009770507, y: 0.9384761}
    - {x: 0.52831984, y: 0.9384761}
    indices: 000000000300000001000000020000000300000000000000
    material: {fileID: 2100000, guid: adbc1f323a9b2424b8c4440a8b23af8c, type: 2}
    materialId: 0
    sourceTextureGUID: f587567ef978c4e46acf22995b9b110d
    extractRegion: 0
    regionX: 0
    regionY: 0
    regionW: 0
    regionH: 0
    flipped: 0
    complexGeometry: 0
    physicsEngine: 0
    colliderType: 0
    customColliders: []
    colliderVertices: []
    colliderIndicesFwd: 
    colliderIndicesBack: 
    colliderConvex: 0
    colliderSmoothSphereCollisions: 0
    polygonCollider2D: []
    edgeCollider2D: []
    attachPoints: []
  - name: bglbl
    boundsData:
    - {x: -0.5, y: 0.0000076293945, z: 0}
    - {x: 859, y: 286, z: 0}
    untrimmedBoundsData:
    - {x: 0, y: 0, z: 0}
    - {x: 866, y: 294, z: 0}
    texelSize: {x: 1, y: 1}
    positions:
    - {x: -430, y: -143, z: 0}
    - {x: 429, y: -143, z: 0}
    - {x: -430, y: 143.00002, z: 0}
    - {x: 429, y: 143.00002, z: 0}
    normals: []
    tangents: []
    uvs:
    - {x: 0.5302739, y: 0.0009770507}
    - {x: 0.94970655, y: 0.0009770507}
    - {x: 0.5302739, y: 0.14062451}
    - {x: 0.94970655, y: 0.14062451}
    indices: 000000000300000001000000020000000300000000000000
    material: {fileID: 2100000, guid: adbc1f323a9b2424b8c4440a8b23af8c, type: 2}
    materialId: 0
    sourceTextureGUID: e168f268504a1f84792a836a713d9980
    extractRegion: 0
    regionX: 0
    regionY: 0
    regionW: 0
    regionH: 0
    flipped: 0
    complexGeometry: 0
    physicsEngine: 0
    colliderType: 0
    customColliders: []
    colliderVertices: []
    colliderIndicesFwd: 
    colliderIndicesBack: 
    colliderConvex: 0
    colliderSmoothSphereCollisions: 0
    polygonCollider2D: []
    edgeCollider2D: []
    attachPoints: []
  premultipliedAlpha: 0
  material: {fileID: 0}
  materials:
  - {fileID: 2100000, guid: adbc1f323a9b2424b8c4440a8b23af8c, type: 2}
  textures:
  - {fileID: 2800000, guid: f6543276dfdc14305bf4e23029980358, type: 3}
  pngTextures: []
  materialPngTextureId: 00000000
  textureFilterMode: 1
  textureMipMaps: 0
  allowMultipleAtlases: 0
  spriteCollectionGUID: f70dea1bfb4054c5585c9a216829e001
  spriteCollectionName: GameSpriteCollection2
  assetName: 
  loadable: 0
  invOrthoSize: 2
  halfTargetHeight: 0.5
  buildKey: 1141846278
  dataGuid: b0bca522d0a8043bcb2b8d73024044a7
  managedSpriteCollection: 0
  hasPlatformData: 0
  spriteCollectionPlatforms: []
  spriteCollectionPlatformGUIDs: []
--- !u!1001 &100100000
Prefab:
  m_ObjectHideFlags: 1
  serializedVersion: 2
  m_Modification:
    m_TransformParent: {fileID: 0}
    m_Modifications: []
    m_RemovedComponents: []
  m_ParentPrefab: {fileID: 0}
  m_RootGameObject: {fileID: 100000}
  m_IsPrefabParent: 1
